Simulations/Processor/dump.vcd
$date
	Sun Apr 28 17:28:12 2024
$end
$version
	Icarus Verilog
$end
$timescale
	1s
$end
$scope module Processor_tb $end
$var wire 32 ! instruction [31:0] $end
$var wire 32 " pc_input [31:0] $end
$var wire 32 # pc_output [31:0] $end
$var wire 32 $ rs2 [31:0] $end
$var wire 32 % rs1 [31:0] $end
$var reg 1 & clk $end
$scope module dut $end
$var wire 1 & clk $end
$var wire 5 ' rs2 [4:0] $end
$var wire 5 ( rs1 [4:0] $end
$var wire 5 ) rd [4:0] $end
$var wire 32 * pc_out [31:0] $end
$var wire 7 + opcode [6:0] $end
$var wire 32 , instruction [31:0] $end
$var wire 32 - S [31:0] $end
$var wire 1 . RUWr $end
$var wire 32 / RURs2 [31:0] $end
$var wire 32 0 RURs1 [31:0] $end
$var wire 2 1 RUDataWrSrc [1:0] $end
$var wire 1 2 NextPCSrc $end
$var wire 25 3 Inst [24:0] $end
$var wire 3 4 ImmSrc [2:0] $end
$var wire 32 5 ImmExt [31:0] $end
$var wire 7 6 Funct7 [6:0] $end
$var wire 3 7 Funct3 [2:0] $end
$var wire 32 8 DataRd [31:0] $end
$var wire 1 9 DMWr $end
$var wire 3 : DMCtrl [2:0] $end
$var wire 5 ; BrOp [4:0] $end
$var wire 4 < ALUOp [3:0] $end
$var wire 1 = ALUBSrc $end
$var wire 1 > ALUASrc $end
$var reg 32 ? A [31:0] $end
$var reg 32 @ B [31:0] $end
$var reg 32 A pc_input [31:0] $end
$var reg 32 B pc_out_plus_4 [31:0] $end
$scope module ALU $end
$var wire 32 C A [31:0] $end
$var wire 32 D B [31:0] $end
$var wire 4 E AluOp [3:0] $end
$var reg 32 F S [31:0] $end
$upscope $end
$scope module BU $end
$var wire 32 G RURs2 [31:0] $end
$var wire 32 H RURs1 [31:0] $end
$var wire 5 I BrOp [4:0] $end
$var reg 1 2 NextPCSrc $end
$upscope $end
$scope module CO $end
$var wire 3 J Funct3 [2:0] $end
$var wire 7 K Funct7 [6:0] $end
$var wire 7 L opcode [6:0] $end
$var reg 1 > ALUASrc $end
$var reg 1 = ALUBSrc $end
$var reg 4 M ALUOp [3:0] $end
$var reg 5 N BrOp [4:0] $end
$var reg 3 O DMCtrl [2:0] $end
$var reg 1 9 DMWr $end
$var reg 3 P ImmSrc [2:0] $end
$var reg 2 Q RUDataWrSrc [1:0] $end
$var reg 1 . RUWr $end
$upscope $end
$scope module DM $end
$var wire 32 R Address [31:0] $end
$var wire 3 S DMCtrl [2:0] $end
$var wire 1 9 DMWr $end
$var wire 32 T DataWr [31:0] $end
$var reg 32 U DataRd [31:0] $end
$upscope $end
$scope module IG $end
$var wire 3 V ImmSrc [2:0] $end
$var wire 25 W Inst [24:0] $end
$var reg 32 X ImmExt [31:0] $end
$upscope $end
$scope module IM $end
$var wire 32 Y instruction [31:0] $end
$var wire 32 Z address [31:0] $end
$upscope $end
$scope module PC $end
$var wire 1 & clk $end
$var wire 32 [ pc_input [31:0] $end
$var reg 1 \ first_time $end
$var reg 32 ] pc_out [31:0] $end
$upscope $end
$scope module RUnit $end
$var wire 32 ^ DataWr [31:0] $end
$var wire 32 _ RURs1 [31:0] $end
$var wire 32 ` RURs2 [31:0] $end
$var wire 1 . RUWr $end
$var wire 1 & clk $end
$var wire 5 a rd [4:0] $end
$var wire 5 b rs1 [4:0] $end
$var wire 5 c rs2 [4:0] $end
$scope begin $ivl_for_loop0 $end
$var integer 32 d i [31:0] $end
$upscope $end
$upscope $end
$upscope $end
$upscope $end
$enddefinitions $end
#0
$dumpvars
b100000 d
bx c
bx b
bx a
bx `
bx _
bx ^
bx ]
1\
bx [
bx Z
bx Y
bx X
bx W
bx V
bx U
bx T
bx S
bx R
bx Q
bx P
bx O
bx N
bx M
bx L
bx K
bx J
bx I
bx H
bx G
bx F
bx E
bx D
bx C
bx B
bx A
bx @
bx ?
x>
x=
bx <
bx ;
bx :
x9
bx 8
bx 7
bx 6
bx 5
bx 4
bx 3
x2
bx 1
bx 0
bx /
x.
bx -
bx ,
bx +
bx *
bx )
bx (
bx '
0&
b0xxxxx %
b0xxxxx $
bx #
bx "
bx !
$end
#5
b10000000000 ^
b10000000000 -
b10000000000 F
b10000000000 R
b10000000000 @
b10000000000 D
b0 ?
b0 C
02
b100 "
b100 A
b100 [
b10000000000 5
b10000000000 X
b0 1
b0 Q
b0 ;
b0 I
b0 N
b0 :
b0 O
b0 S
09
1=
0>
b0 4
b0 P
b0 V
b0 <
b0 E
b0 M
1.
b10011 +
b10011 L
b1010 )
b1010 a
b0 7
b0 J
b0 0
b0 H
b0 _
b0 %
b0 (
b0 b
b100000000000000000001010 3
b100000000000000000001010 W
b0 /
b0 G
b0 T
b0 `
b0 $
b0 '
b0 c
b100000 6
b100000 K
b100 B
0\
b1000000000000000000010100010011 !
b1000000000000000000010100010011 ,
b1000000000000000000010100010011 Y
b0 #
b0 *
b0 Z
b0 ]
1&
#10
0&
#15
b101 ^
b101 -
b101 F
b101 R
b101 @
b101 D
b1000 "
b1000 A
b1000 [
b101 5
b101 X
b1011 )
b1011 a
b101 $
b101 '
b101 c
b1010000000001011 3
b1010000000001011 W
b0 6
b0 K
b1000 B
b10100000000010110010011 !
b10100000000010110010011 ,
b10100000000010110010011 Y
b100 #
b100 *
b100 Z
b100 ]
1&
#20
0&
#25
b1000101 ^
b1000101 -
b1000101 F
b1000101 R
b1000101 @
b1000101 D
b1100 "
b1100 A
b1100 [
b1000101 5
b1000101 X
b101 )
b101 a
b10001010000000000101 3
b10001010000000000101 W
b10 6
b10 K
b1100 B
b100010100000000001010010011 !
b100010100000000001010010011 ,
b100010100000000001010010011 Y
b1000 #
b1000 *
b1000 Z
b1000 ]
1&
#30
0&
#35
b1010011010 ^
b1010011010 -
b1010011010 F
b1010011010 R
b1010011010 @
b1010011010 D
b10000 "
b10000 A
b10000 [
b1010011010 5
b1010011010 X
b110 )
b110 a
b10100110100000000000110 3
b10100110100000000000110 W
b11010 $
b11010 '
b11010 c
b10100 6
b10100 K
b10000 B
b0 /
b0 G
b0 T
b0 `
b101001101000000000001100010011 !
b101001101000000000001100010011 ,
b101001101000000000001100010011 Y
b1100 #
b1100 *
b1100 Z
b1100 ]
1&
#40
0&
#45
b0 ^
b0 -
b0 F
b0 R
b0 @
b0 D
b10100 "
b10100 A
b10100 [
b0 5
b0 X
b111 )
b111 a
b111 3
b111 W
b0 $
b0 '
b0 c
b0 6
b0 K
b10100 B
b1110010011 !
b1110010011 ,
b1110010011 Y
b10000 #
b10000 *
b10000 Z
b10000 ]
1&
#50
0&
#55
b101111 ^
b101111 -
b101111 F
b101111 R
b101111 @
b101111 D
b11000 "
b11000 A
b11000 [
b101111 5
b101111 X
b11100 )
b11100 a
b1111 $
b1111 '
b1111 c
b1011110000000011100 3
b1011110000000011100 W
b1 6
b1 K
b11000 B
b10111100000000111000010011 !
b10111100000000111000010011 ,
b10111100000000111000010011 Y
b10100 #
b10100 *
b10100 Z
b10100 ]
1&
#60
0&
#65
b1110 ^
b1110 -
b1110 F
b1110 R
b1110 @
b1110 D
b11100 "
b11100 A
b11100 [
b1110 5
b1110 X
b11101 )
b11101 a
b1110 $
b1110 '
b1110 c
b11100000000011101 3
b11100000000011101 W
b0 6
b0 K
b11100 B
b111000000000111010010011 !
b111000000000111010010011 ,
b111000000000111010010011 Y
b11000 #
b11000 *
b11000 Z
b11000 ]
1&
#70
0&
#75
b10000000000 -
b10000000000 F
b10000000000 R
b0 @
b0 D
b10000000000 ?
b10000000000 C
b100000 "
b100000 A
b100000 [
b100000 ^
b10 1
b10 Q
b1 4
b1 P
b1 V
b10 :
b10 O
b10 S
19
0.
b0 5
b0 X
b100011 +
b100011 L
b0 )
b0 a
b10 7
b10 J
b1010101001000000 3
b1010101001000000 W
b1000101 /
b1000101 G
b1000101 T
b1000101 `
b101 $
b101 '
b101 c
b10000000000 0
b10000000000 H
b10000000000 _
b1010 %
b1010 (
b1010 b
b100000 B
b10101010010000000100011 !
b10101010010000000100011 ,
b10101010010000000100011 Y
b11100 #
b11100 *
b11100 Z
b11100 ]
1&
#80
0&
#85
b10000000100 -
b10000000100 F
b10000000100 R
b100 @
b100 D
b100100 "
b100100 A
b100100 [
b100 5
b100 X
b1000101 8
b1000101 U
b100100 ^
b100 )
b100 a
b1100101001000100 3
b1100101001000100 W
b1010011010 /
b1010011010 G
b1010011010 T
b1010011010 `
b110 $
b110 '
b110 c
b100100 B
b11001010010001000100011 !
b11001010010001000100011 ,
b11001010010001000100011 Y
b100000 #
b100000 *
b100000 Z
b100000 ]
1&
#90
0&
#95
b10000001000 -
b10000001000 F
b10000001000 R
b1000 @
b1000 D
b101000 "
b101000 A
b101000 [
b1000 5
b1000 X
b1010011010 8
b1010011010 U
b101000 ^
b1000 )
b1000 a
b1110101001001000 3
b1110101001001000 W
b0 /
b0 G
b0 T
b0 `
b111 $
b111 '
b111 c
b101000 B
b11101010010010000100011 !
b11101010010010000100011 ,
b11101010010010000100011 Y
b100100 #
b100100 *
b100100 Z
b100100 ]
1&
#100
0&
#105
b10000001100 -
b10000001100 F
b10000001100 R
b1100 @
b1100 D
b101100 "
b101100 A
b101100 [
b1100 5
b1100 X
b0 8
b0 U
b101100 ^
b1100 )
b1100 a
b111000101001001100 3
b111000101001001100 W
b101111 /
b101111 G
b101111 T
b101111 `
b11100 $
b11100 '
b11100 c
b101100 B
b1110001010010011000100011 !
b1110001010010011000100011 ,
b1110001010010011000100011 Y
b101000 #
b101000 *
b101000 Z
b101000 ]
1&
#110
0&
#115
b10000010000 -
b10000010000 F
b10000010000 R
b10000 @
b10000 D
b110000 "
b110000 A
b110000 [
b10000 5
b10000 X
b101111 8
b101111 U
b110000 ^
b10000 )
b10000 a
b111010101001010000 3
b111010101001010000 W
b1110 /
b1110 G
b1110 T
b1110 `
b11101 $
b11101 '
b11101 c
b110000 B
b1110101010010100000100011 !
b1110101010010100000100011 ,
b1110101010010100000100011 Y
b101100 #
b101100 *
b101100 Z
b101100 ]
1&
#120
0&
#125
b111000 -
b111000 F
b111000 R
12
b1000 @
b1000 D
b110000 ?
b110000 C
b111000 "
b111000 A
b111000 [
b10000 ;
b10000 I
b10000 N
b110 4
b110 P
b110 V
b0 :
b0 O
b0 S
09
1>
1.
b1000 5
b1000 X
b1110 8
b1110 U
b110100 ^
b1101111 +
b1101111 L
b1 )
b1 a
b0 7
b0 J
b0 0
b0 H
b0 _
b0 %
b0 (
b0 b
b10000000000000001 3
b10000000000000001 W
b0 /
b0 G
b0 T
b0 `
b1000 $
b1000 '
b1000 c
b110100 B
b100000000000000011101111 !
b100000000000000011101111 ,
b100000000000000011101111 Y
b110000 #
b110000 *
b110000 Z
b110000 ]
1&
#130
0&
#135
b111100 "
b111100 A
b111100 [
bx 8
bx U
b1111010100 -
b1111010100 F
b1111010100 R
b11111111111111111111111111101100 @
b11111111111111111111111111101100 D
02
b1111101000 ?
b1111101000 C
b11111111111111111111111111101100 5
b11111111111111111111111111101100 X
b0 1
b0 Q
b0 ;
b0 I
b0 N
0>
b0 4
b0 P
b0 V
b1111010100 ^
b10011 +
b10011 L
b10 )
b10 a
b1100 $
b1100 '
b1100 c
b1111101000 0
b1111101000 H
b1111101000 _
b10 %
b10 (
b10 b
b1111111011000001000000010 3
b1111111011000001000000010 W
b1111111 6
b1111111 K
b111100 B
b11111110110000010000000100010011 !
b11111110110000010000000100010011 ,
b11111110110000010000000100010011 Y
b111000 #
b111000 *
b111000 Z
b111000 ]
1&
#140
0&
#145
b0 @
b0 D
b1000000 "
b1000000 A
b1000000 [
b1111010100 ?
b1111010100 C
b1000000 ^
b0 5
b0 X
b10 1
b10 Q
b1 4
b1 P
b1 V
b10 :
b10 O
b10 S
19
0.
b100011 +
b100011 L
b0 )
b0 a
b10 7
b10 J
b1000 $
b1000 '
b1000 c
b10000001001000000 3
b10000001001000000 W
b0 6
b0 K
b1000000 B
b100000010010000000100011 !
b100000010010000000100011 ,
b100000010010000000100011 Y
b111100 #
b111100 *
b111100 Z
b111100 ]
b1111010100 0
b1111010100 H
b1111010100 _
1&
#150
0&
#155
b1111011000 -
b1111011000 F
b1111011000 R
b100 @
b100 D
b1000100 "
b1000100 A
b1000100 [
b100 5
b100 X
b1000100 ^
b100 )
b100 a
b10010001001000100 3
b10010001001000100 W
b1001 $
b1001 '
b1001 c
b1000100 B
b100100010010001000100011 !
b100100010010001000100011 ,
b100100010010001000100011 Y
b1000000 #
b1000000 *
b1000000 Z
b1000000 ]
1&
#160
0&
#165
b1111011100 -
b1111011100 F
b1111011100 R
b1000 @
b1000 D
b1001000 "
b1001000 A
b1001000 [
b1000 5
b1000 X
b1001000 ^
b1000 )
b1000 a
b100100001001001000 3
b100100001001001000 W
b10010 $
b10010 '
b10010 c
b1001000 B
b1001000010010010000100011 !
b1001000010010010000100011 ,
b1001000010010010000100011 Y
b1000100 #
b1000100 *
b1000100 Z
b1000100 ]
1&
#170
0&
#175
b1111100000 -
b1111100000 F
b1111100000 R
b1100 @
b1100 D
b1001100 "
b1001100 A
b1001100 [
b1100 5
b1100 X
b1001100 ^
b1100 )
b1100 a
b100110001001001100 3
b100110001001001100 W
b10011 $
b10011 '
b10011 c
b1001100 B
b1001100010010011000100011 !
b1001100010010011000100011 ,
b1001100010010011000100011 Y
b1001000 #
b1001000 *
b1001000 Z
b1001000 ]
1&
#180
0&
#185
b1111100100 -
b1111100100 F
b1111100100 R
b10000 @
b10000 D
b1010000 "
b1010000 A
b1010000 [
b10000 5
b10000 X
b1010000 ^
b10000 )
b10000 a
b101000001001010000 3
b101000001001010000 W
b10100 $
b10100 '
b10100 c
b1010000 B
b1010000010010100000100011 !
b1010000010010100000100011 ,
b1010000010010100000100011 Y
b1001100 #
b1001100 *
b1001100 Z
b1001100 ]
1&
#190
0&
#195
b1111101000 -
b1111101000 F
b1111101000 R
b10100 @
b10100 D
b1010100 "
b1010100 A
b1010100 [
b10100 5
b10100 X
b1010100 ^
b10100 )
b10100 a
b101010001001010100 3
b101010001001010100 W
b10101 $
b10101 '
b10101 c
b1010100 B
b1010100010010101000100011 !
b1010100010010101000100011 ,
b1010100010010101000100011 Y
b1010000 #
b1010000 *
b1010000 Z
b1010000 ]
1&
#200
0&
#205
b10000000000 -
b10000000000 F
b10000000000 R
b0 @
b0 D
b10000000000 ?
b10000000000 C
b1011000 "
b1011000 A
b1011000 [
b1000101 8
b1000101 U
b0 1
b0 Q
b0 :
b0 O
b0 S
09
b0 4
b0 P
b0 V
1.
b0 5
b0 X
b10000000000 ^
b10011 +
b10011 L
b1000 )
b1000 a
b0 7
b0 J
b10000000000 0
b10000000000 H
b10000000000 _
b1010 %
b1010 (
b1010 b
b101000001000 3
b101000001000 W
b0 $
b0 '
b0 c
b1011000 B
b1010000010000010011 !
b1010000010000010011 ,
b1010000010000010011 Y
b1010100 #
b1010100 *
b1010100 Z
b1010100 ]
1&
#210
0&
#215
b101 ^
bx 8
bx U
b101 -
b101 F
b101 R
b101 ?
b101 C
b1011100 "
b1011100 A
b1011100 [
b1001 )
b1001 a
b101100001001 3
b101100001001 W
b101 0
b101 H
b101 _
b1011 %
b1011 (
b1011 b
b1011100 B
b1011000010010010011 !
b1011000010010010011 ,
b1011000010010010011 Y
b1011000 #
b1011000 *
b1011000 Z
b1011000 ]
1&
#220
0&
#225
b1100000 "
b1100000 A
b1100000 [
b10010 )
b10010 a
b100100010010 3
b100100010010 W
b1001 %
b1001 (
b1001 b
b1100000 B
b1001000100100010011 !
b1001000100100010011 ,
b1001000100100010011 Y
b1011100 #
b1011100 *
b1011100 Z
b1011100 ]
1&
#230
0&
#235
b0 ^
b0 -
b0 F
b0 R
b0 ?
b0 C
b1100100 "
b1100100 A
b1100100 [
b10011 )
b10011 a
b10011 3
b10011 W
b0 0
b0 H
b0 _
b0 %
b0 (
b0 b
b1100100 B
b100110010011 !
b100110010011 ,
b100110010011 Y
b1100000 #
b1100000 *
b1100000 Z
b1100000 ]
1&
#240
0&
#245
b10101000 -
b10101000 F
b10101000 R
b1000100 @
b1000100 D
b1100100 ?
b1100100 C
b1101000 "
b1101000 A
b1101000 [
b1101000 ^
b0xxxxxxxx 8
b0xxxxxxxx U
b1000100 5
b1000100 X
b10 1
b10 Q
b1100 ;
b1100 I
b1100 N
b101 4
b101 P
b101 V
b100 :
b100 O
b100 S
1>
0.
b1100011 +
b1100011 L
b100 )
b100 a
b100 7
b100 J
b101 0
b101 H
b101 _
b10010 %
b10010 (
b10010 b
b10000001001010000100 3
b10000001001010000100 W
b10 6
b10 K
b1101000 B
b100000010010100001001100011 !
b100000010010100001001100011 ,
b100000010010100001001100011 Y
b1100100 #
b1100100 *
b1100100 Z
b1100100 ]
1&
#250
0&
#255
b0 -
b0 F
b0 R
b0 @
b0 D
b1101100 "
b1101100 A
b1101100 [
b0 ?
b0 C
bx 8
bx U
b0 5
b0 X
b0 1
b0 Q
b0 ;
b0 I
b0 N
b0 :
b0 O
b0 S
0>
b0 4
b0 P
b0 V
1.
b0 ^
b10011 +
b10011 L
b10011 )
b10011 a
b0 7
b0 J
b0 0
b0 H
b0 _
b0 %
b0 (
b0 b
b10011 3
b10011 W
b0 6
b0 K
b1101100 B
b100110010011 !
b100110010011 ,
b100110010011 Y
b1101000 #
b1101000 *
b1101000 Z
b1101000 ]
1&
#260
0&
#265
b100 ^
b100 -
b100 F
b100 R
b11111111111111111111111111111111 @
b11111111111111111111111111111111 D
b101 ?
b101 C
b1110000 "
b1110000 A
b1110000 [
b11111111111111111111111111111111 5
b11111111111111111111111111111111 X
b101 )
b101 a
b101 0
b101 H
b101 _
b10010 %
b10010 (
b10010 b
b1111111111111001000000101 3
b1111111111111001000000101 W
b11111 $
b11111 '
b11111 c
b1111111 6
b1111111 K
b1110000 B
b11111111111110010000001010010011 !
b11111111111110010000001010010011 ,
b11111111111110010000001010010011 Y
b1101100 #
b1101100 *
b1101100 Z
b1101100 ]
1&
#270
0&
#275
b10100000 -
b10100000 F
b10100000 R
b110000 @
b110000 D
b1110000 ?
b1110000 C
b1110100 "
b1110100 A
b1110100 [
b1110100 ^
b110000 5
b110000 X
b0xxxxxxxxxxxxxxxx 8
b0xxxxxxxxxxxxxxxx U
b10 1
b10 Q
b1101 ;
b1101 I
b1101 N
b101 4
b101 P
b101 V
b101 :
b101 O
b101 S
1>
0.
b1100011 +
b1100011 L
b10000 )
b10000 a
b0 0
b0 H
b0 _
b10011 %
b10011 (
b10011 b
b101 7
b101 J
b1001011001110110000 3
b1001011001110110000 W
b100 /
b100 G
b100 T
b100 `
b101 $
b101 '
b101 c
b1 6
b1 K
b1110100 B
b10010110011101100001100011 !
b10010110011101100001100011 ,
b10010110011101100001100011 Y
b1110000 #
b1110000 *
b1110000 Z
b1110000 ]
1&
#280
0&
#285
b0 -
b0 F
b0 R
b0 @
b0 D
b1111000 "
b1111000 A
b1111000 [
b0 ?
b0 C
bx 8
bx U
b0 5
b0 X
b0 1
b0 Q
b0 ;
b0 I
b0 N
b0 :
b0 O
b0 S
0>
b0 4
b0 P
b0 V
1.
b0 ^
b10011 +
b10011 L
b110 )
b110 a
b0 7
b0 J
b0 /
b0 G
b0 T
b0 `
b0 $
b0 '
b0 c
b1001100000110 3
b1001100000110 W
b0 6
b0 K
b1111000 B
b10011000001100010011 !
b10011000001100010011 ,
b10011000001100010011 Y
b1110100 #
b1110100 *
b1110100 Z
b1110100 ]
1&
#290
0&
#295
b10 @
b10 D
b1111100 "
b1111100 A
b1111100 [
b1 :
b1 O
b1 S
b1 <
b1 E
b1 M
b10 5
b10 X
b1 7
b1 J
b100011000100110 3
b100011000100110 W
b1111010100 /
b1111010100 G
b1111010100 T
b1111010100 `
b10 $
b10 '
b10 c
b110 %
b110 (
b110 b
b1111100 B
b1000110001001100010011 !
b1000110001001100010011 ,
b1000110001001100010011 Y
b1111000 #
b1111000 *
b1111000 Z
b1111000 ]
1&
#300
0&
#305
b1000101 8
b1000101 U
b0 @
b0 D
b10000000000 ?
b10000000000 C
b10000000 "
b10000000 A
b10000000 [
b10000000000 ^
b10000000000 -
b10000000000 F
b10000000000 R
b0 :
b0 O
b0 S
0=
b0 <
b0 E
b0 M
b110 5
b110 X
b110011 +
b110011 L
b0 7
b0 J
b1100100000000110 3
b1100100000000110 W
b0 /
b0 G
b0 T
b0 `
b110 $
b110 '
b110 c
b10000000000 0
b10000000000 H
b10000000000 _
b1000 %
b1000 (
b1000 b
b10000000 B
b11001000000001100110011 !
b11001000000001100110011 ,
b11001000000001100110011 Y
b1111100 #
b1111100 *
b1111100 Z
b1111100 ]
1&
#310
0&
#315
b10000000100 ^
b11111111111111111111111110011010 8
b11111111111111111111111110011010 U
b10000000100 -
b10000000100 F
b10000000100 R
b10000100 "
b10000100 A
b10000100 [
b100 @
b100 D
1=
b100 5
b100 X
b111 )
b111 a
b10011 +
b10011 L
b1000011000000111 3
b1000011000000111 W
b100 $
b100 '
b100 c
b110 %
b110 (
b110 b
b10000100 B
b0 /
b0 G
b0 T
b0 `
b10000110000001110010011 !
b10000110000001110010011 ,
b10000110000001110010011 Y
b10000000 #
b10000000 *
b10000000 Z
b10000000 ]
1&
#320
0&
#325
b10000000000 -
b10000000000 F
b10000000000 R
b0 @
b0 D
b10001000 "
b10001000 A
b10001000 [
b1000101 ^
b1000101 8
b1000101 U
b1 1
b1 Q
b10 :
b10 O
b10 S
b0 5
b0 X
b11 +
b11 L
b10100 )
b10100 a
b10 7
b10 J
b11001010100 3
b11001010100 W
b0 $
b0 '
b0 c
b10001000 B
b110010101000000011 !
b110010101000000011 ,
b110010101000000011 Y
b10000100 #
b10000100 *
b10000100 Z
b10000100 ]
1&
#330
0&
#335
b1010011010 ^
b1010011010 8
b1010011010 U
b10000000100 -
b10000000100 F
b10000000100 R
b10000000100 ?
b10000000100 C
b10001100 "
b10001100 A
b10001100 [
b10101 )
b10101 a
b11101010101 3
b11101010101 W
b10000000100 0
b10000000100 H
b10000000100 _
b111 %
b111 (
b111 b
b10001100 B
b111010101010000011 !
b111010101010000011 ,
b111010101010000011 Y
b10001000 #
b10001000 *
b10001000 Z
b10001000 ]
1&
#340
0&
#345
b0xxxxxxxxxxxxxxxx 8
b0xxxxxxxxxxxxxxxx U
b10011000 -
b10011000 F
b10011000 R
12
b1100 @
b1100 D
b10001100 ?
b10001100 C
b10011000 "
b10011000 A
b10011000 [
b10010000 ^
b10 1
b10 Q
b1101 ;
b1101 I
b1101 N
b101 4
b101 P
b101 V
b101 :
b101 O
b101 S
1>
0.
b1100 5
b1100 X
b1100011 +
b1100011 L
b1100 )
b1100 a
b101 7
b101 J
b1010011010 0
b1010011010 H
b1010011010 _
b10101 %
b10101 (
b10101 b
b101001010110101100 3
b101001010110101100 W
b1000101 /
b1000101 G
b1000101 T
b1000101 `
b10100 $
b10100 '
b10100 c
b10010000 B
b1010010101101011001100011 !
b1010010101101011001100011 ,
b1010010101101011001100011 Y
b10001100 #
b10001100 *
b10001100 Z
b10001100 ]
1&
#350
0&
#355
b10011100 "
b10011100 A
b10011100 [
b1 -
b1 F
b1 R
b1 @
b1 D
02
b0 ?
b0 C
bx 8
bx U
b0 1
b0 Q
b0 ;
b0 I
b0 N
b0 :
b0 O
b0 S
0>
b0 4
b0 P
b0 V
1.
b1 5
b1 X
b1 ^
b10011 +
b10011 L
b10011 )
b10011 a
b0 7
b0 J
b0 0
b0 H
b0 _
b10011 %
b10011 (
b10011 b
b11001100010011 3
b11001100010011 W
b110100 /
b110100 G
b110100 T
b110100 `
b1 $
b1 '
b1 c
b10011100 B
b110011000100110010011 !
b110011000100110010011 ,
b110011000100110010011 Y
b10011000 #
b10011000 *
b10011000 Z
b10011000 ]
1&
#360
0&
#365
b1110000 -
b1110000 F
b1110000 R
b11111111111111111111111111010100 @
b11111111111111111111111111010100 D
12
b1110000 "
b1110000 A
b1110000 [
b10011100 ?
b10011100 C
b10100000 ^
b11111111111111111111111111010100 5
b11111111111111111111111111010100 X
b10 1
b10 Q
b1000 ;
b1000 I
b1000 N
b101 4
b101 P
b101 V
1>
0.
b1100011 +
b1100011 L
b10101 )
b10101 a
b0 /
b0 G
b0 T
b0 `
b0 $
b0 '
b0 c
b0 %
b0 (
b0 b
b1111110000000000000010101 3
b1111110000000000000010101 W
b1111110 6
b1111110 K
b10100000 B
b11111100000000000000101011100011 !
b11111100000000000000101011100011 ,
b11111100000000000000101011100011 Y
b10011100 #
b10011100 *
b10011100 Z
b10011100 ]
b0 0
b0 H
b0 _
1&
#370
0&
#375
b1110100 "
b1110100 A
b1110100 [
b10100000 -
b10100000 F
b10100000 R
b110000 @
b110000 D
02
b1110000 ?
b1110000 C
b0xxxxxxxxxxxxxxxx 8
b0xxxxxxxxxxxxxxxx U
b110000 5
b110000 X
b1101 ;
b1101 I
b1101 N
b101 :
b101 O
b101 S
b1110100 ^
b10000 )
b10000 a
b101 7
b101 J
b100 /
b100 G
b100 T
b100 `
b101 $
b101 '
b101 c
b1 0
b1 H
b1 _
b10011 %
b10011 (
b10011 b
b1001011001110110000 3
b1001011001110110000 W
b1 6
b1 K
b1110100 B
b10010110011101100001100011 !
b10010110011101100001100011 ,
b10010110011101100001100011 Y
b1110000 #
b1110000 *
b1110000 Z
b1110000 ]
1&
#380
0&
#385
b1 -
b1 F
b1 R
b0 @
b0 D
b1111000 "
b1111000 A
b1111000 [
b1 ?
b1 C
bx 8
bx U
b0 5
b0 X
b0 1
b0 Q
b0 ;
b0 I
b0 N
b0 :
b0 O
b0 S
0>
b0 4
b0 P
b0 V
1.
b1 ^
b10011 +
b10011 L
b110 )
b110 a
b0 7
b0 J
b0 /
b0 G
b0 T
b0 `
b0 $
b0 '
b0 c
b1001100000110 3
b1001100000110 W
b0 6
b0 K
b1111000 B
b10011000001100010011 !
b10011000001100010011 ,
b10011000001100010011 Y
b1110100 #
b1110100 *
b1110100 Z
b1110100 ]
1&
#390
0&
#395
b100 ^
b100 -
b100 F
b100 R
b10 @
b10 D
b1111100 "
b1111100 A
b1111100 [
b1 :
b1 O
b1 S
b1 <
b1 E
b1 M
b10 5
b10 X
b1 7
b1 J
b100011000100110 3
b100011000100110 W
b1111010100 /
b1111010100 G
b1111010100 T
b1111010100 `
b10 $
b10 '
b10 c
b110 %
b110 (
b110 b
b1111100 B
b1000110001001100010011 !
b1000110001001100010011 ,
b1000110001001100010011 Y
b1111000 #
b1111000 *
b1111000 Z
b1111000 ]
1&
#400
0&
#405
b11111111111111111111111110011010 8
b11111111111111111111111110011010 U
b100 @
b100 D
b10000000 "
b10000000 A
b10000000 [
b10000000000 ?
b10000000000 C
b10000000100 ^
b10000000100 -
b10000000100 F
b10000000100 R
b0 :
b0 O
b0 S
0=
b0 <
b0 E
b0 M
b110 5
b110 X
b110011 +
b110011 L
b0 7
b0 J
b1100100000000110 3
b1100100000000110 W
b100 /
b100 G
b100 T
b100 `
b110 $
b110 '
b110 c
b1000 %
b1000 (
b1000 b
b10000000 B
b11001000000001100110011 !
b11001000000001100110011 ,
b11001000000001100110011 Y
b1111100 #
b1111100 *
b1111100 Z
b1111100 ]
b10000000000 0
b10000000000 H
b10000000000 _
1&
#410
0&
#415
b10000001000 ^
b0 8
b0 U
b10000001000 -
b10000001000 F
b10000001000 R
b10000000100 ?
b10000000100 C
b10000100 "
b10000100 A
b10000100 [
b100 @
b100 D
1=
b100 5
b100 X
b111 )
b111 a
b10011 +
b10011 L
b1000011000000111 3
b1000011000000111 W
b100 $
b100 '
b100 c
b10000000100 0
b10000000100 H
b10000000100 _
b110 %
b110 (
b110 b
b10000100 B
b0 /
b0 G
b0 T
b0 `
b10000110000001110010011 !
b10000110000001110010011 ,
b10000110000001110010011 Y
b10000000 #
b10000000 *
b10000000 Z
b10000000 ]
1&
#420
0&
#425
b1010011010 8
b1010011010 U
b10000000100 -
b10000000100 F
b10000000100 R
b0 @
b0 D
b10001000 "
b10001000 A
b10001000 [
b1010011010 ^
b1 1
b1 Q
b10 :
b10 O
b10 S
b0 5
b0 X
b11 +
b11 L
b10100 )
b10100 a
b10 7
b10 J
b11001010100 3
b11001010100 W
b0 $
b0 '
b0 c
b10001000 B
b110010101000000011 !
b110010101000000011 ,
b110010101000000011 Y
b10000100 #
b10000100 *
b10000100 Z
b10000100 ]
1&
#430
0&
#435
b0 ^
b0 8
b0 U
b10000001000 -
b10000001000 F
b10000001000 R
b10000001000 ?
b10000001000 C
b10001100 "
b10001100 A
b10001100 [
b10101 )
b10101 a
b11101010101 3
b11101010101 W
b10000001000 0
b10000001000 H
b10000001000 _
b111 %
b111 (
b111 b
b10001100 B
b111010101010000011 !
b111010101010000011 ,
b111010101010000011 Y
b10001000 #
b10001000 *
b10001000 Z
b10001000 ]
1&
#440
0&
#445
b0xxxxxxxxxxxxxxxx 8
b0xxxxxxxxxxxxxxxx U
b10011000 -
b10011000 F
b10011000 R
b1100 @
b1100 D
b10001100 ?
b10001100 C
b10010000 "
b10010000 A
b10010000 [
b10010000 ^
b10 1
b10 Q
b1101 ;
b1101 I
b1101 N
b101 4
b101 P
b101 V
b101 :
b101 O
b101 S
1>
0.
b1100 5
b1100 X
b1100011 +
b1100011 L
b1100 )
b1100 a
b101 7
b101 J
b0 0
b0 H
b0 _
b10101 %
b10101 (
b10101 b
b101001010110101100 3
b101001010110101100 W
b1010011010 /
b1010011010 G
b1010011010 T
b1010011010 `
b10100 $
b10100 '
b10100 c
b10010000 B
b1010010101101011001100011 !
b1010010101101011001100011 ,
b1010010101101011001100011 Y
b10001100 #
b10001100 *
b10001100 Z
b10001100 ]
1&
#450
0&
