Simulations/Processor/dump.vcd
$date
	Mon Apr 29 19:59:08 2024
$end
$version
	Icarus Verilog
$end
$timescale
	1s
$end
$scope module Processor_tb $end
$var wire 32 ! instruction [31:0] $end
$var wire 32 " pc_input [31:0] $end
$var wire 32 # pc_output [31:0] $end
$var wire 32 $ rs2 [31:0] $end
$var wire 32 % rs1 [31:0] $end
$var reg 1 & clk $end
$scope module dut $end
$var wire 1 & clk $end
$var wire 5 ' rs2 [4:0] $end
$var wire 5 ( rs1 [4:0] $end
$var wire 5 ) rd [4:0] $end
$var wire 32 * pc_out [31:0] $end
$var wire 7 + opcode [6:0] $end
$var wire 32 , instruction [31:0] $end
$var wire 32 - S [31:0] $end
$var wire 1 . RUWr $end
$var wire 32 / RURs2 [31:0] $end
$var wire 32 0 RURs1 [31:0] $end
$var wire 2 1 RUDataWrSrc [1:0] $end
$var wire 1 2 NextPCSrc $end
$var wire 25 3 Inst [24:0] $end
$var wire 3 4 ImmSrc [2:0] $end
$var wire 32 5 ImmExt [31:0] $end
$var wire 7 6 Funct7 [6:0] $end
$var wire 3 7 Funct3 [2:0] $end
$var wire 32 8 DataRd [31:0] $end
$var wire 1 9 DMWr $end
$var wire 3 : DMCtrl [2:0] $end
$var wire 5 ; BrOp [4:0] $end
$var wire 4 < ALUOp [3:0] $end
$var wire 1 = ALUBSrc $end
$var wire 1 > ALUASrc $end
$var reg 32 ? A [31:0] $end
$var reg 32 @ B [31:0] $end
$var reg 32 A pc_input [31:0] $end
$var reg 32 B pc_out_plus_4 [31:0] $end
$scope module ALU $end
$var wire 32 C A [31:0] $end
$var wire 32 D B [31:0] $end
$var wire 4 E AluOp [3:0] $end
$var reg 32 F S [31:0] $end
$upscope $end
$scope module BU $end
$var wire 32 G RURs2 [31:0] $end
$var wire 32 H RURs1 [31:0] $end
$var wire 5 I BrOp [4:0] $end
$var reg 1 2 NextPCSrc $end
$upscope $end
$scope module CO $end
$var wire 3 J Funct3 [2:0] $end
$var wire 7 K Funct7 [6:0] $end
$var wire 7 L opcode [6:0] $end
$var reg 1 > ALUASrc $end
$var reg 1 = ALUBSrc $end
$var reg 4 M ALUOp [3:0] $end
$var reg 5 N BrOp [4:0] $end
$var reg 3 O DMCtrl [2:0] $end
$var reg 1 9 DMWr $end
$var reg 3 P ImmSrc [2:0] $end
$var reg 2 Q RUDataWrSrc [1:0] $end
$var reg 1 . RUWr $end
$upscope $end
$scope module DM $end
$var wire 32 R Address [31:0] $end
$var wire 3 S DMCtrl [2:0] $end
$var wire 1 9 DMWr $end
$var wire 32 T DataWr [31:0] $end
$var reg 32 U DataRd [31:0] $end
$upscope $end
$scope module IG $end
$var wire 3 V ImmSrc [2:0] $end
$var wire 25 W Inst [24:0] $end
$var reg 32 X ImmExt [31:0] $end
$upscope $end
$scope module IM $end
$var wire 32 Y instruction [31:0] $end
$var wire 32 Z address [31:0] $end
$upscope $end
$scope module PC $end
$var wire 1 & clk $end
$var wire 32 [ pc_input [31:0] $end
$var reg 1 \ first_time $end
$var reg 32 ] pc_out [31:0] $end
$upscope $end
$scope module RUnit $end
$var wire 32 ^ DataWr [31:0] $end
$var wire 32 _ RURs1 [31:0] $end
$var wire 32 ` RURs2 [31:0] $end
$var wire 1 . RUWr $end
$var wire 1 & clk $end
$var wire 5 a rd [4:0] $end
$var wire 5 b rs1 [4:0] $end
$var wire 5 c rs2 [4:0] $end
$scope begin $ivl_for_loop0 $end
$var integer 32 d i [31:0] $end
$upscope $end
$upscope $end
$upscope $end
$upscope $end
$enddefinitions $end
#0
$dumpvars
b100000 d
bx c
bx b
bx a
bx `
bx _
bx ^
bx ]
1\
bx [
bx Z
bx Y
bx X
bx W
bx V
bx U
bx T
bx S
bx R
bx Q
bx P
bx O
bx N
bx M
bx L
bx K
bx J
bx I
bx H
bx G
bx F
bx E
bx D
bx C
bx B
bx A
bx @
bx ?
x>
x=
bx <
bx ;
bx :
x9
bx 8
bx 7
bx 6
bx 5
bx 4
bx 3
x2
bx 1
bx 0
bx /
x.
bx -
bx ,
bx +
bx *
bx )
bx (
bx '
0&
b0xxxxx %
b0xxxxx $
bx #
bx "
bx !
$end
#5
b10 ^
b10 -
b10 F
b10 R
b10 @
b10 D
b0 ?
b0 C
02
b100 "
b100 A
b100 [
b10 5
b10 X
b0 1
b0 Q
b0 ;
b0 I
b0 N
b0 :
b0 O
b0 S
09
1=
0>
b0 4
b0 P
b0 V
b0 <
b0 E
b0 M
1.
b10011 +
b10011 L
b1010 )
b1010 a
b0 7
b0 J
b0 0
b0 H
b0 _
b0 %
b0 (
b0 b
b100000000001010 3
b100000000001010 W
b1111101000 /
b1111101000 G
b1111101000 T
b1111101000 `
b10 $
b10 '
b10 c
b0 6
b0 K
b100 B
0\
b1000000000010100010011 !
b1000000000010100010011 ,
b1000000000010100010011 Y
b0 #
b0 *
b0 Z
b0 ]
1&
#10
0&
#15
b100 ^
b100 -
b100 F
b100 R
b100 @
b100 D
b1000 "
b1000 A
b1000 [
b100 5
b100 X
b1011 )
b1011 a
b1000000000001011 3
b1000000000001011 W
b0 /
b0 G
b0 T
b0 `
b100 $
b100 '
b100 c
b1000 B
b10000000000010110010011 !
b10000000000010110010011 ,
b10000000000010110010011 Y
b100 #
b100 *
b100 Z
b100 ]
1&
#20
0&
#25
b1010100 -
b1010100 F
b1010100 R
12
b1001100 @
b1001100 D
b1000 ?
b1000 C
b1010100 "
b1010100 A
b1010100 [
b1100 ^
b1001100 5
b1001100 X
b10 1
b10 Q
b10000 ;
b10000 I
b10000 N
b110 4
b110 P
b110 V
1>
b1101111 +
b1101111 L
b1 )
b1 a
b1100 $
b1100 '
b1100 c
b10011000000000000001 3
b10011000000000000001 W
b10 6
b10 K
b1100 B
b100110000000000000011101111 !
b100110000000000000011101111 ,
b100110000000000000011101111 Y
b1000 #
b1000 *
b1000 Z
b1000 ]
1&
#30
0&
#35
b1011000 "
b1011000 A
b1011000 [
b1111011000 -
b1111011000 F
b1111011000 R
b11111111111111111111111111110000 @
b11111111111111111111111111110000 D
02
b1111101000 ?
b1111101000 C
b11111111111111111111111111110000 5
b11111111111111111111111111110000 X
b0 1
b0 Q
b0 ;
b0 I
b0 N
0>
b0 4
b0 P
b0 V
b1111011000 ^
b10011 +
b10011 L
b10 )
b10 a
b1111101000 0
b1111101000 H
b1111101000 _
b10 %
b10 (
b10 b
b1111111100000001000000010 3
b1111111100000001000000010 W
b10000 $
b10000 '
b10000 c
b1111111 6
b1111111 K
b1011000 B
b11111111000000010000000100010011 !
b11111111000000010000000100010011 ,
b11111111000000010000000100010011 Y
b1010100 #
b1010100 *
b1010100 Z
b1010100 ]
1&
#40
0&
#45
b0 @
b0 D
b1011100 "
b1011100 A
b1011100 [
b1111011000 ?
b1111011000 C
b1011100 ^
b0 5
b0 X
b10 1
b10 Q
b1 4
b1 P
b1 V
b10 :
b10 O
b10 S
19
0.
b100011 +
b100011 L
b0 )
b0 a
b10 7
b10 J
b10000001001000000 3
b10000001001000000 W
b1000 $
b1000 '
b1000 c
b0 6
b0 K
b1011100 B
b100000010010000000100011 !
b100000010010000000100011 ,
b100000010010000000100011 Y
b1011000 #
b1011000 *
b1011000 Z
b1011000 ]
b1111011000 0
b1111011000 H
b1111011000 _
1&
#50
0&
#55
b1111011100 -
b1111011100 F
b1111011100 R
b100 @
b100 D
b1100000 "
b1100000 A
b1100000 [
b100 5
b100 X
b1100000 ^
b100 )
b100 a
b10010001001000100 3
b10010001001000100 W
b1001 $
b1001 '
b1001 c
b1100000 B
b100100010010001000100011 !
b100100010010001000100011 ,
b100100010010001000100011 Y
b1011100 #
b1011100 *
b1011100 Z
b1011100 ]
1&
#60
0&
#65
b1111100000 -
b1111100000 F
b1111100000 R
b1000 @
b1000 D
b1100100 "
b1100100 A
b1100100 [
b1000 5
b1000 X
b1100100 ^
b1000 )
b1000 a
b100100001001001000 3
b100100001001001000 W
b10010 $
b10010 '
b10010 c
b1100100 B
b1001000010010010000100011 !
b1001000010010010000100011 ,
b1001000010010010000100011 Y
b1100000 #
b1100000 *
b1100000 Z
b1100000 ]
1&
#70
0&
#75
b1111100100 -
b1111100100 F
b1111100100 R
b1100 @
b1100 D
b1101000 "
b1101000 A
b1101000 [
b1100 5
b1100 X
b0 8
b0 U
b1101000 ^
b1100 )
b1100 a
b10001001001100 3
b10001001001100 W
b1100 /
b1100 G
b1100 T
b1100 `
b1 $
b1 '
b1 c
b1101000 B
b100010010011000100011 !
b100010010011000100011 ,
b100010010011000100011 Y
b1100100 #
b1100100 *
b1100100 Z
b1100100 ]
1&
#80
0&
#85
b10 -
b10 F
b10 R
b10 @
b10 D
b0 ?
b0 C
b1101100 "
b1101100 A
b1101100 [
b0 1
b0 Q
b0 :
b0 O
b0 S
09
0=
b0 4
b0 P
b0 V
1.
b1010 5
b1010 X
b1100 8
b1100 U
b10 ^
b110011 +
b110011 L
b1000 )
b1000 a
b0 7
b0 J
b10100000000001000 3
b10100000000001000 W
b10 /
b10 G
b10 T
b10 `
b1010 $
b1010 '
b1010 c
b0 0
b0 H
b0 _
b0 %
b0 (
b0 b
b1101100 B
b101000000000010000110011 !
b101000000000010000110011 ,
b101000000000010000110011 Y
b1101000 #
b1101000 *
b1101000 Z
b1101000 ]
1&
#90
0&
#95
b100 ^
b100 -
b100 F
b100 R
b100 @
b100 D
b1110000 "
b1110000 A
b1110000 [
b1011 5
b1011 X
bx 8
bx U
b1001 )
b1001 a
b10110000000001001 3
b10110000000001001 W
b100 /
b100 G
b100 T
b100 `
b1011 $
b1011 '
b1011 c
b1110000 B
b101100000000010010110011 !
b101100000000010010110011 ,
b101100000000010010110011 Y
b1101100 #
b1101100 *
b1101100 Z
b1101100 ]
1&
#100
0&
#105
b1 ^
b1 -
b1 F
b1 R
b1 @
b1 D
b1110100 "
b1110100 A
b1110100 [
1=
b1 5
b1 X
b10011 +
b10011 L
b10010 )
b10010 a
b10000000010010 3
b10000000010010 W
b1100 /
b1100 G
b1100 T
b1100 `
b1 $
b1 '
b1 c
b1110100 B
b100000000100100010011 !
b100000000100100010011 ,
b100000000100100010011 Y
b1110000 #
b1110000 *
b1110000 Z
b1110000 ]
1&
#110
0&
#115
b10010000 -
b10010000 F
b10010000 R
b11100 @
b11100 D
b1110100 ?
b1110100 C
b1111000 "
b1111000 A
b1111000 [
b1111000 ^
b10 1
b10 Q
b1000 ;
b1000 I
b1000 N
b101 4
b101 P
b101 V
1>
0.
b11100 5
b11100 X
b1100011 +
b1100011 L
b11100 )
b11100 a
b100100011100 3
b100100011100 W
b0 /
b0 G
b0 T
b0 `
b0 $
b0 '
b0 c
b100 0
b100 H
b100 _
b1001 %
b1001 (
b1001 b
b1111000 B
b1001000111001100011 !
b1001000111001100011 ,
b1001000111001100011 Y
b1110100 #
b1110100 *
b1110100 Z
b1110100 ]
1&
#120
0&
#125
b1 -
b1 F
b1 R
b0 @
b0 D
b1111100 "
b1111100 A
b1111100 [
b1 ?
b1 C
b0 1
b0 Q
b0 ;
b0 I
b0 N
0>
b0 4
b0 P
b0 V
1.
b0 5
b0 X
b1 ^
b10011 +
b10011 L
b1010 )
b1010 a
b1001000001010 3
b1001000001010 W
b1 0
b1 H
b1 _
b10010 %
b10010 (
b10010 b
b1111100 B
b10010000010100010011 !
b10010000010100010011 ,
b10010000010100010011 Y
b1111000 #
b1111000 *
b1111000 Z
b1111000 ]
1&
#130
0&
#135
b10 ^
b10 8
b10 U
b10 -
b10 F
b10 R
b10 ?
b10 C
b10000000 "
b10000000 A
b10000000 [
b1011 )
b1011 a
b100000001011 3
b100000001011 W
b10 0
b10 H
b10 _
b1000 %
b1000 (
b1000 b
b10000000 B
b1000000010110010011 !
b1000000010110010011 ,
b1000000010110010011 Y
b1111100 #
b1111100 *
b1111100 Z
b1111100 ]
1&
#140
0&
#145
b0xxxxxxxx 8
b0xxxxxxxx U
b10000 -
b10000 F
b10000 R
b11111111111111111111111110010000 @
b11111111111111111111111110010000 D
b10000000 ?
b10000000 C
12
b10000 "
b10000 A
b10000 [
b10000100 ^
b11111111111111111111111110010000 5
b11111111111111111111111110010000 X
b10 1
b10 Q
b10000 ;
b10000 I
b10000 N
b110 4
b110 P
b110 V
b111 :
b111 O
b111 S
1>
b1101111 +
b1101111 L
b1 )
b1 a
b111 7
b111 J
b0 0
b0 H
b0 _
b11111 %
b11111 (
b11111 b
b1111100100011111111100001 3
b1111100100011111111100001 W
b10001 $
b10001 '
b10001 c
b1111100 6
b1111100 K
b10000100 B
b11111001000111111111000011101111 !
b11111001000111111111000011101111 ,
b11111001000111111111000011101111 Y
b10000000 #
b10000000 *
b10000000 Z
b10000000 ]
1&
#150
0&
#155
b10100 "
b10100 A
b10100 [
b1111001100 -
b1111001100 F
b1111001100 R
b11111111111111111111111111110100 @
b11111111111111111111111111110100 D
02
b1111011000 ?
b1111011000 C
bx 8
bx U
b11111111111111111111111111110100 5
b11111111111111111111111111110100 X
b0 1
b0 Q
b0 ;
b0 I
b0 N
b0 :
b0 O
b0 S
0>
b0 4
b0 P
b0 V
b1111001100 ^
b10011 +
b10011 L
b10 )
b10 a
b0 7
b0 J
b10100 $
b10100 '
b10100 c
b1111011000 0
b1111011000 H
b1111011000 _
b10 %
b10 (
b10 b
b1111111101000001000000010 3
b1111111101000001000000010 W
b1111111 6
b1111111 K
b10100 B
b11111111010000010000000100010011 !
b11111111010000010000000100010011 ,
b11111111010000010000000100010011 Y
b10000 #
b10000 *
b10000 Z
b10000 ]
1&
#160
0&
#165
b0 @
b0 D
b11000 "
b11000 A
b11000 [
b1111001100 ?
b1111001100 C
b11000 ^
b0 5
b0 X
b10 1
b10 Q
b1 4
b1 P
b1 V
b10 :
b10 O
b10 S
19
0.
b100011 +
b100011 L
b0 )
b0 a
b10 7
b10 J
b10000001001000000 3
b10000001001000000 W
b10 /
b10 G
b10 T
b10 `
b1000 $
b1000 '
b1000 c
b0 6
b0 K
b11000 B
b100000010010000000100011 !
b100000010010000000100011 ,
b100000010010000000100011 Y
b10100 #
b10100 *
b10100 Z
b10100 ]
b1111001100 0
b1111001100 H
b1111001100 _
1&
#170
0&
#175
b1111010000 -
b1111010000 F
b1111010000 R
b100 @
b100 D
b11100 "
b11100 A
b11100 [
b100 5
b100 X
b10 8
b10 U
b11100 ^
b100 )
b100 a
b10010001001000100 3
b10010001001000100 W
b100 /
b100 G
b100 T
b100 `
b1001 $
b1001 '
b1001 c
b11100 B
b100100010010001000100011 !
b100100010010001000100011 ,
b100100010010001000100011 Y
b11000 #
b11000 *
b11000 Z
b11000 ]
1&
#180
0&
#185
b1111010100 -
b1111010100 F
b1111010100 R
b1000 @
b1000 D
b100000 "
b100000 A
b100000 [
b1000 5
b1000 X
b100 8
b100 U
b100000 ^
b1000 )
b1000 a
b100100001001001000 3
b100100001001001000 W
b1 /
b1 G
b1 T
b1 `
b10010 $
b10010 '
b10010 c
b100000 B
b1001000010010010000100011 !
b1001000010010010000100011 ,
b1001000010010010000100011 Y
b11100 #
b11100 *
b11100 Z
b11100 ]
1&
#190
0&
#195
b1 -
b1 F
b1 R
b0 @
b0 D
b1 ?
b1 C
b100100 "
b100100 A
b100100 [
b0 5
b0 X
b0 1
b0 Q
b0 :
b0 O
b0 S
09
b0 4
b0 P
b0 V
1.
b1 8
b1 U
b1 ^
b10011 +
b10011 L
b0 7
b0 J
b1 0
b1 H
b1 _
b1010 %
b1010 (
b1010 b
b101000001000 3
b101000001000 W
b0 /
b0 G
b0 T
b0 `
b0 $
b0 '
b0 c
b100100 B
b1010000010000010011 !
b1010000010000010011 ,
b1010000010000010011 Y
b100000 #
b100000 *
b100000 Z
b100000 ]
1&
#200
0&
#205
b10 ^
b10 8
b10 U
b10 -
b10 F
b10 R
b10 ?
b10 C
b101000 "
b101000 A
b101000 [
b1001 )
b1001 a
b101100001001 3
b101100001001 W
b10 0
b10 H
b10 _
b1011 %
b1011 (
b1011 b
b101000 B
b1011000010010010011 !
b1011000010010010011 ,
b1011000010010010011 Y
b100100 #
b100100 *
b100100 Z
b100100 ]
1&
#210
0&
#215
b0 ^
bx 8
bx U
b0 -
b0 F
b0 R
b0 ?
b0 C
b101100 "
b101100 A
b101100 [
b10010 )
b10010 a
b10010 3
b10010 W
b0 0
b0 H
b0 _
b0 %
b0 (
b0 b
b101100 B
b100100010011 !
b100100010011 ,
b100100010011 Y
b101000 #
b101000 *
b101000 Z
b101000 ]
1&
#220
0&
#225
b111100 -
b111100 F
b111100 R
b10000 @
b10000 D
b101100 ?
b101100 C
b110000 "
b110000 A
b110000 [
b110000 ^
b10000 5
b10000 X
b10 1
b10 Q
b1000 ;
b1000 I
b1000 N
b101 4
b101 P
b101 V
1>
0.
b1100011 +
b1100011 L
b10000 )
b10000 a
b100100010000 3
b100100010000 W
b10 0
b10 H
b10 _
b1001 %
b1001 (
b1001 b
b110000 B
b1001000100001100011 !
b1001000100001100011 ,
b1001000100001100011 Y
b101100 #
b101100 *
b101100 Z
b101100 ]
1&
#230
0&
#235
b0 8
b0 U
b1 -
b1 F
b1 R
b1 @
b1 D
b110100 "
b110100 A
b110100 [
b0 ?
b0 C
b0 1
b0 Q
b0 ;
b0 I
b0 N
0=
0>
b0 4
b0 P
b0 V
1.
b1000 5
b1000 X
b1 ^
b110011 +
b110011 L
b10010 )
b10010 a
b10001001000010010 3
b10001001000010010 W
b1 /
b1 G
b1 T
b1 `
b1000 $
b1000 '
b1000 c
b0 0
b0 H
b0 _
b10010 %
b10010 (
b10010 b
b110100 B
b100010010000100100110011 !
b100010010000100100110011 ,
b100010010000100100110011 Y
b110000 #
b110000 *
b110000 Z
b110000 ]
1&
#240
0&
#245
b11111111111111111111111111111111 @
b11111111111111111111111111111111 D
b111000 "
b111000 A
b111000 [
b10 ?
b10 C
b11111111111111111111111111111111 5
b11111111111111111111111111111111 X
1=
b10011 +
b10011 L
b1001 )
b1001 a
b1001 %
b1001 (
b1001 b
b1111111111110100100001001 3
b1111111111110100100001001 W
b0 /
b0 G
b0 T
b0 `
b11111 $
b11111 '
b11111 c
b1111111 6
b1111111 K
b111000 B
b11111111111101001000010010010011 !
b11111111111101001000010010010011 ,
b11111111111101001000010010010011 Y
b110100 #
b110100 *
b110100 Z
b110100 ]
b10 0
b10 H
b10 _
1&
#250
0&
#255
bx 8
bx U
b101100 -
b101100 F
b101100 R
12
b11111111111111111111111111110100 @
b11111111111111111111111111110100 D
b101100 "
b101100 A
b101100 [
b111000 ?
b111000 C
b111100 ^
b10 1
b10 Q
b1000 ;
b1000 I
b1000 N
b101 4
b101 P
b101 V
1>
0.
b11111111111111111111111111110100 5
b11111111111111111111111111110100 X
b1100011 +
b1100011 L
b10101 )
b10101 a
b0 %
b0 (
b0 b
b1111111000000000000010101 3
b1111111000000000000010101 W
b0 $
b0 '
b0 c
b111100 B
b0 0
b0 H
b0 _
b11111110000000000000101011100011 !
b11111110000000000000101011100011 ,
b11111110000000000000101011100011 Y
b111000 #
b111000 *
b111000 Z
b111000 ]
1&
#260
0&
#265
b110000 "
b110000 A
b110000 [
b111100 -
b111100 F
b111100 R
b10000 @
b10000 D
02
b101100 ?
b101100 C
b10000 5
b10000 X
b110000 ^
b10000 )
b10000 a
b1 0
b1 H
b1 _
b1001 %
b1001 (
b1001 b
b100100010000 3
b100100010000 W
b0 6
b0 K
b110000 B
b1001000100001100011 !
b1001000100001100011 ,
b1001000100001100011 Y
b101100 #
b101100 *
b101100 Z
b101100 ]
1&
#270
0&
#275
b10 8
b10 U
b10 -
b10 F
b10 R
b1 @
b1 D
02
b110100 "
b110100 A
b110100 [
b1 ?
b1 C
b0 1
b0 Q
b0 ;
b0 I
b0 N
0=
0>
b0 4
b0 P
b0 V
1.
b1000 5
b1000 X
b10 ^
b110011 +
b110011 L
b10010 )
b10010 a
b10001001000010010 3
b10001001000010010 W
b1 /
b1 G
b1 T
b1 `
b1000 $
b1000 '
b1000 c
b10010 %
b10010 (
b10010 b
b110100 B
b100010010000100100110011 !
b100010010000100100110011 ,
b100010010000100100110011 Y
b110000 #
b110000 *
b110000 Z
b110000 ]
1&
#280
0&
#285
b0 ^
bx 8
bx U
b0 -
b0 F
b0 R
b11111111111111111111111111111111 @
b11111111111111111111111111111111 D
b111000 "
b111000 A
b111000 [
b1 ?
b1 C
b11111111111111111111111111111111 5
b11111111111111111111111111111111 X
1=
b10011 +
b10011 L
b1001 )
b1001 a
b1001 %
b1001 (
b1001 b
b1111111111110100100001001 3
b1111111111110100100001001 W
b0 /
b0 G
b0 T
b0 `
b11111 $
b11111 '
b11111 c
b1111111 6
b1111111 K
b111000 B
b11111111111101001000010010010011 !
b11111111111101001000010010010011 ,
b11111111111101001000010010010011 Y
b110100 #
b110100 *
b110100 Z
b110100 ]
b1 0
b1 H
b1 _
1&
#290
0&
#295
b101100 -
b101100 F
b101100 R
12
b11111111111111111111111111110100 @
b11111111111111111111111111110100 D
b101100 "
b101100 A
b101100 [
b111000 ?
b111000 C
b111100 ^
b10 1
b10 Q
b1000 ;
b1000 I
b1000 N
b101 4
b101 P
b101 V
1>
0.
b11111111111111111111111111110100 5
b11111111111111111111111111110100 X
b1100011 +
b1100011 L
b10101 )
b10101 a
b0 %
b0 (
b0 b
b1111111000000000000010101 3
b1111111000000000000010101 W
b0 $
b0 '
b0 c
b111100 B
b0 0
b0 H
b0 _
b11111110000000000000101011100011 !
b11111110000000000000101011100011 ,
b11111110000000000000101011100011 Y
b111000 #
b111000 *
b111000 Z
b111000 ]
1&
#300
0&
#305
b111100 "
b111100 A
b111100 [
b111100 -
b111100 F
b111100 R
b10000 @
b10000 D
b101100 ?
b101100 C
b10000 5
b10000 X
b110000 ^
b10000 )
b10000 a
b1001 %
b1001 (
b1001 b
b100100010000 3
b100100010000 W
b0 6
b0 K
b110000 B
b1001000100001100011 !
b1001000100001100011 ,
b1001000100001100011 Y
b101100 #
b101100 *
b101100 Z
b101100 ]
1&
#310
0&
#315
b1000000 "
b1000000 A
b1000000 [
b10 8
b10 U
b10 -
b10 F
b10 R
b0 @
b0 D
02
b10 ?
b10 C
b0 1
b0 Q
b0 ;
b0 I
b0 N
0>
b0 4
b0 P
b0 V
1.
b0 5
b0 X
b10 ^
b10011 +
b10011 L
b1010 )
b1010 a
b1001000001010 3
b1001000001010 W
b10 0
b10 H
b10 _
b10010 %
b10010 (
b10010 b
b1000000 B
b10010000010100010011 !
b10010000010100010011 ,
b10010000010100010011 Y
b111100 #
b111100 *
b111100 Z
b111100 ]
1&
#320
0&
#325
b1111001100 -
b1111001100 F
b1111001100 R
b1111001100 ?
b1111001100 C
b1000100 "
b1000100 A
b1000100 [
b10 ^
b10 8
b10 U
b1 1
b1 Q
b10 :
b10 O
b10 S
b11 +
b11 L
b1000 )
b1000 a
b10 7
b10 J
b1001001000 3
b1001001000 W
b1111001100 0
b1111001100 H
b1111001100 _
b10 %
b10 (
b10 b
b1000100 B
b10010010000000011 !
b10010010000000011 ,
b10010010000000011 Y
b1000000 #
b1000000 *
b1000000 Z
b1000000 ]
1&
#330
0&
#335
b100 ^
b100 8
b100 U
b1111010000 -
b1111010000 F
b1111010000 R
b100 @
b100 D
b1001000 "
b1001000 A
b1001000 [
b100 5
b100 X
b1001 )
b1001 a
b1000001001001001 3
b1000001001001001 W
b100 $
b100 '
b100 c
b1001000 B
b10000010010010010000011 !
b10000010010010010000011 ,
b10000010010010010000011 Y
b1000100 #
b1000100 *
b1000100 Z
b1000100 ]
1&
#340
0&
#345
b1 ^
b1 8
b1 U
b1111010100 -
b1111010100 F
b1111010100 R
b1000 @
b1000 D
b1001100 "
b1001100 A
b1001100 [
b1000 5
b1000 X
b10010 )
b10010 a
b10000001001010010 3
b10000001001010010 W
b10 /
b10 G
b10 T
b10 `
b1000 $
b1000 '
b1000 c
b1001100 B
b100000010010100100000011 !
b100000010010100100000011 ,
b100000010010100100000011 Y
b1001000 #
b1001000 *
b1001000 Z
b1001000 ]
1&
#350
0&
#355
b0 8
b0 U
b1111011000 -
b1111011000 F
b1111011000 R
b1100 @
b1100 D
b1010000 "
b1010000 A
b1010000 [
b1111011000 ^
b0 1
b0 Q
b0 :
b0 O
b0 S
b1100 5
b1100 X
b10011 +
b10011 L
b10 )
b10 a
b0 7
b0 J
b11000001000000010 3
b11000001000000010 W
b0 /
b0 G
b0 T
b0 `
b1100 $
b1100 '
b1100 c
b1010000 B
b110000010000000100010011 !
b110000010000000100010011 ,
b110000010000000100010011 Y
b1001100 #
b1001100 *
b1001100 Z
b1001100 ]
1&
#360
0&
#365
bx 8
bx U
b10000100 -
b10000100 F
b10000100 R
12
b0 @
b0 D
b10000100 "
b10000100 A
b10000100 [
b10000100 ?
b10000100 C
b1010100 ^
b10 1
b10 Q
b10000 ;
b10000 I
b10000 N
b0 5
b0 X
b1100111 +
b1100111 L
b1 )
b1 a
b100000001 3
b100000001 W
b0 $
b0 '
b0 c
b1 %
b1 (
b1 b
b1010100 B
b1000000011100111 !
b1000000011100111 ,
b1000000011100111 Y
b1010000 #
b1010000 *
b1010000 Z
b1010000 ]
b10000100 0
b10000100 H
b10000100 _
1&
#370
0&
#375
b10001000 "
b10001000 A
b10001000 [
b10 8
b10 U
b10 -
b10 F
b10 R
02
b10 ?
b10 C
b0 1
b0 Q
b0 ;
b0 I
b0 N
b10 ^
b10011 +
b10011 L
b10010 )
b10010 a
b101000010010 3
b101000010010 W
b1010 %
b1010 (
b1010 b
b10001000 B
b10 0
b10 H
b10 _
b1010000100100010011 !
b1010000100100010011 ,
b1010000100100010011 Y
b10000100 #
b10000100 *
b10000100 Z
b10000100 ]
1&
#380
0&
#385
b11 ^
bx 8
bx U
b11 -
b11 F
b11 R
b11111111111111111111111111111111 @
b11111111111111111111111111111111 D
b100 ?
b100 C
b10001100 "
b10001100 A
b10001100 [
b11111111111111111111111111111111 5
b11111111111111111111111111111111 X
b1001 )
b1001 a
b100 0
b100 H
b100 _
b1001 %
b1001 (
b1001 b
b1111111111110100100001001 3
b1111111111110100100001001 W
b11111 $
b11111 '
b11111 c
b1111111 6
b1111111 K
b10001100 B
b11111111111101001000010010010011 !
b11111111111101001000010010010011 ,
b11111111111101001000010010010011 Y
b10001000 #
b10001000 *
b10001000 Z
b10001000 ]
1&
#390
0&
#395
b1110100 -
b1110100 F
b1110100 R
12
b11111111111111111111111111101000 @
b11111111111111111111111111101000 D
b1110100 "
b1110100 A
b1110100 [
b10001100 ?
b10001100 C
b10010000 ^
b10 1
b10 Q
b1000 ;
b1000 I
b1000 N
b101 4
b101 P
b101 V
1>
0.
b11111111111111111111111111101000 5
b11111111111111111111111111101000 X
b1100011 +
b1100011 L
b0 %
b0 (
b0 b
b1111111000000000000001001 3
b1111111000000000000001001 W
b0 $
b0 '
b0 c
b10010000 B
b0 0
b0 H
b0 _
b11111110000000000000010011100011 !
b11111110000000000000010011100011 ,
b11111110000000000000010011100011 Y
b10001100 #
b10001100 *
b10001100 Z
b10001100 ]
1&
#400
0&
#405
b1111000 "
b1111000 A
b1111000 [
b10010000 -
b10010000 F
b10010000 R
b11100 @
b11100 D
02
b1110100 ?
b1110100 C
b11100 5
b11100 X
b1111000 ^
b11100 )
b11100 a
b11 0
b11 H
b11 _
b1001 %
b1001 (
b1001 b
b100100011100 3
b100100011100 W
b0 6
b0 K
b1111000 B
b1001000111001100011 !
b1001000111001100011 ,
b1001000111001100011 Y
b1110100 #
b1110100 *
b1110100 Z
b1110100 ]
1&
#410
0&
#415
b10 8
b10 U
b10 -
b10 F
b10 R
b0 @
b0 D
b1111100 "
b1111100 A
b1111100 [
b10 ?
b10 C
b0 1
b0 Q
b0 ;
b0 I
b0 N
0>
b0 4
b0 P
b0 V
1.
b0 5
b0 X
b10 ^
b10011 +
b10011 L
b1010 )
b1010 a
b1001000001010 3
b1001000001010 W
b10 0
b10 H
b10 _
b10010 %
b10010 (
b10010 b
b1111100 B
b10010000010100010011 !
b10010000010100010011 ,
b10010000010100010011 Y
b1111000 #
b1111000 *
b1111000 Z
b1111000 ]
1&
#420
0&
#425
b10000000 "
b10000000 A
b10000000 [
b1011 )
b1011 a
b100000001011 3
b100000001011 W
b1000 %
b1000 (
b1000 b
b10000000 B
b1000000010110010011 !
b1000000010110010011 ,
b1000000010110010011 Y
b1111100 #
b1111100 *
b1111100 Z
b1111100 ]
1&
#430
0&
#435
b0xxxxxxxx 8
b0xxxxxxxx U
b10000 -
b10000 F
b10000 R
b11111111111111111111111110010000 @
b11111111111111111111111110010000 D
b10000000 ?
b10000000 C
12
b10000 "
b10000 A
b10000 [
b10000100 ^
b11111111111111111111111110010000 5
b11111111111111111111111110010000 X
b10 1
b10 Q
b10000 ;
b10000 I
b10000 N
b110 4
b110 P
b110 V
b111 :
b111 O
b111 S
1>
b1101111 +
b1101111 L
b1 )
b1 a
b111 7
b111 J
b0 0
b0 H
b0 _
b11111 %
b11111 (
b11111 b
b1111100100011111111100001 3
b1111100100011111111100001 W
b10001 $
b10001 '
b10001 c
b1111100 6
b1111100 K
b10000100 B
b11111001000111111111000011101111 !
b11111001000111111111000011101111 ,
b11111001000111111111000011101111 Y
b10000000 #
b10000000 *
b10000000 Z
b10000000 ]
1&
#440
0&
