Simulations/Processor/dump.vcd
$date
	Tue May 28 12:59:14 2024
$end
$version
	Icarus Verilog
$end
$timescale
	1s
$end
$scope module Processor_tb $end
$var wire 32 ! instruction [31:0] $end
$var wire 32 " pc_input [31:0] $end
$var wire 32 # pc_output [31:0] $end
$var wire 32 $ rs2 [31:0] $end
$var wire 32 % rs1 [31:0] $end
$var reg 1 & clk $end
$scope module dut $end
$var wire 1 ' DMRd_ex $end
$var wire 1 ( RUWr_wb $end
$var wire 1 & clk $end
$var wire 5 ) rs2_ex_output [4:0] $end
$var wire 5 * rs2 [4:0] $end
$var wire 5 + rs1_ex_output [4:0] $end
$var wire 5 , rs1 [4:0] $end
$var wire 5 - rd_wb_output [4:0] $end
$var wire 5 . rd_me_output [4:0] $end
$var wire 5 / rd_ex_output [4:0] $end
$var wire 5 0 rd [4:0] $end
$var wire 32 1 pc_out [31:0] $end
$var wire 32 2 instruction [31:0] $end
$var wire 32 3 S [31:0] $end
$var wire 32 4 RUrs2_me_output [31:0] $end
$var wire 32 5 RUrs2_ex_output [31:0] $end
$var wire 32 6 RUrs1_ex_output [31:0] $end
$var wire 1 7 RUWr_wb_output $end
$var wire 1 8 RUWr_me_output $end
$var wire 1 9 RUWr_ex_output $end
$var wire 1 : RUWr $end
$var wire 32 ; RURs2 [31:0] $end
$var wire 32 < RURs1 [31:0] $end
$var wire 2 = RUDataWrSrc_wb_output [1:0] $end
$var wire 2 > RUDataWrSrc_me_output [1:0] $end
$var wire 2 ? RUDataWrSrc_ex_output [1:0] $end
$var wire 2 @ RUDataWrSrc [1:0] $end
$var wire 32 A PC_ex_output [31:0] $end
$var wire 32 B PC_de_output [31:0] $end
$var wire 32 C PCInc_wb_output [31:0] $end
$var wire 32 D PCInc_me_output [31:0] $end
$var wire 32 E PCInc_ex_output [31:0] $end
$var wire 32 F PCInc_de_output [31:0] $end
$var wire 1 G NextPCSrc $end
$var wire 32 H Inst_de_output [31:0] $end
$var wire 3 I ImmSrc [2:0] $end
$var wire 32 J ImmExt_ex_output [31:0] $end
$var wire 32 K ImmExt [31:0] $end
$var wire 1 L HDUStall $end
$var wire 2 M FUBSrc [1:0] $end
$var wire 2 N FUASrc [1:0] $end
$var wire 32 O DataRd [31:0] $end
$var wire 1 P DMWr_me_output $end
$var wire 1 Q DMWr_ex_output $end
$var wire 1 R DMWr $end
$var wire 1 S DMRd_ex_output $end
$var wire 1 T DMRd $end
$var wire 32 U DMDataRd_wb_output [31:0] $end
$var wire 3 V DMCtrl_me_output [2:0] $end
$var wire 3 W DMCtrl_ex_output [2:0] $end
$var wire 3 X DMCtrl [2:0] $end
$var wire 5 Y BrOp [4:0] $end
$var wire 5 Z BUOp_ex_output [4:0] $end
$var wire 32 [ ALURes_wb_output [31:0] $end
$var wire 32 \ ALURes_me_output [31:0] $end
$var wire 4 ] ALUOp_ex_output [3:0] $end
$var wire 4 ^ ALUOp [3:0] $end
$var wire 1 _ ALUBSrc_ex_output $end
$var wire 1 ` ALUBSrc $end
$var wire 1 a ALUASrc_ex_output $end
$var wire 1 b ALUASrc $end
$var reg 32 c A [31:0] $end
$var reg 32 d B [31:0] $end
$var reg 32 e DataWr [31:0] $end
$var reg 32 f FUAMux [31:0] $end
$var reg 32 g FUBMux [31:0] $end
$var reg 32 h pc_input [31:0] $end
$var reg 32 i pc_out_plus_4 [31:0] $end
$scope module ALU $end
$var wire 32 j A [31:0] $end
$var wire 32 k B [31:0] $end
$var wire 4 l AluOp [3:0] $end
$var reg 32 m S [31:0] $end
$upscope $end
$scope module ALUASrc_ex $end
$var wire 1 & clk $end
$var wire 1 L clrHDU $end
$var wire 1 G clrBU $end
$var wire 1 b ALUASrc_ex_input $end
$var reg 1 a ALUASrc_ex_output $end
$upscope $end
$scope module ALUBSrc_ex $end
$var wire 1 & clk $end
$var wire 1 L clrHDU $end
$var wire 1 G clrBU $end
$var wire 1 ` ALUBSrc_ex_input $end
$var reg 1 _ ALUBSrc_ex_output $end
$upscope $end
$scope module ALUOP_ex $end
$var wire 1 & clk $end
$var wire 1 L clrHDU $end
$var wire 1 G clrBU $end
$var wire 4 n ALUOp_ex_input [3:0] $end
$var reg 4 o ALUOp_ex_output [3:0] $end
$upscope $end
$scope module ALURes_me $end
$var wire 32 p ALURes_me_input [31:0] $end
$var wire 1 & clk $end
$var reg 32 q ALURes_me_output [31:0] $end
$upscope $end
$scope module ALURes_wb $end
$var wire 32 r ALURes_wb_input [31:0] $end
$var wire 1 & clk $end
$var reg 32 s ALURes_wb_output [31:0] $end
$upscope $end
$scope module BU $end
$var wire 32 t RURs1 [31:0] $end
$var wire 32 u RURs2 [31:0] $end
$var wire 5 v BrOp [4:0] $end
$var reg 1 G NextPCSrc $end
$upscope $end
$scope module BUOp_ex $end
$var wire 1 & clk $end
$var wire 1 G clrBU $end
$var wire 1 L clrHDU $end
$var wire 5 w BUOp_ex_input [4:0] $end
$var reg 5 x BUOp_ex_output [4:0] $end
$upscope $end
$scope module CO $end
$var wire 3 y Funct3 [2:0] $end
$var wire 7 z Funct7 [6:0] $end
$var wire 7 { opcode [6:0] $end
$var reg 1 b ALUASrc $end
$var reg 1 ` ALUBSrc $end
$var reg 4 | ALUOp [3:0] $end
$var reg 5 } BrOp [4:0] $end
$var reg 3 ~ DMCtrl [2:0] $end
$var reg 1 T DMRd $end
$var reg 1 R DMWr $end
$var reg 3 !" ImmSrc [2:0] $end
$var reg 2 "" RUDataWrSrc [1:0] $end
$var reg 1 : RUWr $end
$upscope $end
$scope module DM $end
$var wire 32 #" Address [31:0] $end
$var wire 32 $" DataWr [31:0] $end
$var wire 1 P DMWr $end
$var wire 3 %" DMCtrl [2:0] $end
$var reg 32 &" DataRd [31:0] $end
$upscope $end
$scope module DMCtrl_ex $end
$var wire 3 '" DMCtrl_ex_input [2:0] $end
$var wire 1 & clk $end
$var wire 1 G clrBU $end
$var wire 1 L clrHDU $end
$var reg 3 (" DMCtrl_ex_output [2:0] $end
$upscope $end
$scope module DMCtrl_me $end
$var wire 3 )" DMCtrl_me_input [2:0] $end
$var wire 1 & clk $end
$var reg 3 *" DMCtrl_me_output [2:0] $end
$upscope $end
$scope module DMDataRd_wb $end
$var wire 32 +" DMDataRd_wb_input [31:0] $end
$var wire 1 & clk $end
$var reg 32 ," DMDataRd_wb_output [31:0] $end
$upscope $end
$scope module DMRd_ex $end
$var wire 1 ' DMRd_ex_input $end
$var wire 1 & clk $end
$var wire 1 G clrBU $end
$var wire 1 L clrHDU $end
$var reg 1 S DMRd_ex_output $end
$upscope $end
$scope module DMWr_ex $end
$var wire 1 R DMWr_ex_input $end
$var wire 1 & clk $end
$var wire 1 G clrBU $end
$var wire 1 L clrHDU $end
$var reg 1 Q DMWr_ex_output $end
$upscope $end
$scope module DMWr_me $end
$var wire 1 Q DMWr_me_input $end
$var wire 1 & clk $end
$var reg 1 P DMWr_me_output $end
$upscope $end
$scope module FU $end
$var wire 5 -" rs2_ex [4:0] $end
$var wire 5 ." rs1_ex [4:0] $end
$var wire 5 /" rd_wb [4:0] $end
$var wire 5 0" rd_me [4:0] $end
$var wire 1 7 RUWr_wb $end
$var wire 1 8 RUWr_me $end
$var reg 2 1" FUASrc [1:0] $end
$var reg 2 2" FUBSrc [1:0] $end
$upscope $end
$scope module HDU $end
$var wire 1 ' DMRd_ex $end
$var wire 5 3" rs1_de [4:0] $end
$var wire 5 4" rs2_de [4:0] $end
$var wire 5 5" rd_ex [4:0] $end
$var reg 1 L HDUStall $end
$upscope $end
$scope module IG $end
$var wire 3 6" ImmSrc [2:0] $end
$var wire 25 7" Inst [24:0] $end
$var reg 32 8" ImmExt [31:0] $end
$upscope $end
$scope module IM $end
$var wire 32 9" instruction [31:0] $end
$var wire 32 :" address [31:0] $end
$upscope $end
$scope module ImmExt_ex $end
$var wire 32 ;" ImmExt_ex_input [31:0] $end
$var wire 1 & clk $end
$var reg 32 <" ImmExt_ex_output [31:0] $end
$upscope $end
$scope module Inst_de $end
$var wire 32 =" Inst_de_input [31:0] $end
$var wire 1 & clk $end
$var wire 1 G clrBU $end
$var wire 1 L enable $end
$var reg 32 >" Inst_de_output [31:0] $end
$upscope $end
$scope module PCInc_de $end
$var wire 32 ?" PCInc_de_input [31:0] $end
$var wire 1 & clk $end
$var wire 1 G clrBU $end
$var wire 1 L enable $end
$var reg 32 @" PCInc_de_output [31:0] $end
$upscope $end
$scope module PCInc_ex $end
$var wire 32 A" PCInc_ex_input [31:0] $end
$var wire 1 & clk $end
$var reg 32 B" PCInc_ex_output [31:0] $end
$upscope $end
$scope module PCInc_me $end
$var wire 32 C" PCInc_me_input [31:0] $end
$var wire 1 & clk $end
$var reg 32 D" PCInc_me_output [31:0] $end
$upscope $end
$scope module PCInc_wb $end
$var wire 32 E" PCInc_wb_input [31:0] $end
$var wire 1 & clk $end
$var reg 32 F" PCInc_wb_output [31:0] $end
$upscope $end
$scope module PC_de $end
$var wire 1 & clk $end
$var wire 1 G clrBU $end
$var wire 1 L enable $end
$var wire 32 G" PC_de_input [31:0] $end
$var reg 32 H" PC_de_output [31:0] $end
$upscope $end
$scope module PC_ex $end
$var wire 32 I" PC_ex_input [31:0] $end
$var wire 1 & clk $end
$var reg 32 J" PC_ex_output [31:0] $end
$upscope $end
$scope module PC_fe $end
$var wire 1 & clk $end
$var wire 32 K" pc_input [31:0] $end
$var reg 1 L" first_time $end
$var reg 32 M" pc_out [31:0] $end
$upscope $end
$scope module RUDataWrSrc_ex $end
$var wire 2 N" RUDataWrSrc_ex_input [1:0] $end
$var wire 1 & clk $end
$var wire 1 G clrBU $end
$var wire 1 L clrHDU $end
$var reg 2 O" RUDataWrSrc_ex_output [1:0] $end
$upscope $end
$scope module RUDataWrSrc_me $end
$var wire 2 P" RUDataWrSrc_me_input [1:0] $end
$var wire 1 & clk $end
$var reg 2 Q" RUDataWrSrc_me_output [1:0] $end
$upscope $end
$scope module RUDataWrSrc_wb $end
$var wire 2 R" RUDataWrSrc_wb_input [1:0] $end
$var wire 1 & clk $end
$var reg 2 S" RUDataWrSrc_wb_output [1:0] $end
$upscope $end
$scope module RUWr_ex $end
$var wire 1 : RUWr_ex_input $end
$var wire 1 & clk $end
$var wire 1 G clrBU $end
$var wire 1 L clrHDU $end
$var reg 1 9 RUWr_ex_output $end
$upscope $end
$scope module RUWr_me $end
$var wire 1 9 RUWr_me_input $end
$var wire 1 & clk $end
$var reg 1 8 RUWr_me_output $end
$upscope $end
$scope module RUWr_wb $end
$var wire 1 9 RUWr_wb_input $end
$var wire 1 & clk $end
$var reg 1 7 RUWr_wb_output $end
$upscope $end
$scope module RUnit $end
$var wire 32 T" DataWr [31:0] $end
$var wire 32 U" RURs1 [31:0] $end
$var wire 32 V" RURs2 [31:0] $end
$var wire 1 ( RUWr $end
$var wire 1 & clk $end
$var wire 5 W" rd [4:0] $end
$var wire 5 X" rs1 [4:0] $end
$var wire 5 Y" rs2 [4:0] $end
$scope begin $ivl_for_loop0 $end
$var integer 32 Z" i [31:0] $end
$upscope $end
$upscope $end
$scope module RUrs1_ex $end
$var wire 32 [" RUrs1_ex_input [31:0] $end
$var wire 1 & clk $end
$var reg 32 \" RUrs1_ex_output [31:0] $end
$upscope $end
$scope module RUrs2_ex $end
$var wire 32 ]" RUrs2_ex_input [31:0] $end
$var wire 1 & clk $end
$var reg 32 ^" RUrs2_ex_output [31:0] $end
$upscope $end
$scope module RUrs2_me $end
$var wire 32 _" RUrs2_me_input [31:0] $end
$var wire 1 & clk $end
$var reg 32 `" RUrs2_me_output [31:0] $end
$upscope $end
$scope module rd_ex $end
$var wire 1 & clk $end
$var wire 5 a" rd_ex_input [4:0] $end
$var reg 5 b" rd_ex_output [4:0] $end
$upscope $end
$scope module rd_me $end
$var wire 1 & clk $end
$var wire 5 c" rd_me_input [4:0] $end
$var reg 5 d" rd_me_output [4:0] $end
$upscope $end
$scope module rd_wb $end
$var wire 1 & clk $end
$var wire 5 e" rd_wb_input [4:0] $end
$var reg 5 f" rd_wb_output [4:0] $end
$upscope $end
$scope module rs1_ex $end
$var wire 1 & clk $end
$var wire 5 g" rs1_ex_input [4:0] $end
$var reg 5 h" rs1_ex_output [4:0] $end
$upscope $end
$scope module rs2_ex $end
$var wire 1 & clk $end
$var wire 5 i" rs2_ex_input [4:0] $end
$var reg 5 j" rs2_ex_output [4:0] $end
$upscope $end
$upscope $end
$upscope $end
$enddefinitions $end
#0
$dumpvars
bx j"
bx i"
bx h"
bx g"
bx f"
bx e"
bx d"
bx c"
bx b"
bx a"
bx `"
bx _"
bx ^"
bx ]"
bx \"
bx ["
b100000 Z"
bx Y"
bx X"
bx W"
bx V"
bx U"
bx T"
bx S"
bx R"
bx Q"
bx P"
bx O"
bx N"
bx M"
1L"
bx K"
bx J"
bx I"
bx H"
bx G"
bx F"
bx E"
bx D"
bx C"
bx B"
bx A"
bx @"
bx ?"
bx >"
bx ="
bx <"
bx ;"
bx :"
bx 9"
bx 8"
bx 7"
bx 6"
bx 5"
bx 4"
bx 3"
b0 2"
b0 1"
bx 0"
bx /"
bx ."
bx -"
bx ,"
bx +"
bx *"
bx )"
bx ("
bx '"
bx &"
bx %"
bx $"
bx #"
bx ""
bx !"
bx ~
bx }
bx |
bx {
bx z
bx y
bx x
bx w
bx v
bx u
bx t
bx s
bx r
bx q
bx p
bx o
bx n
bx m
bx l
bx k
bx j
bx i
bx h
bx g
bx f
bx e
bx d
bx c
xb
xa
x`
x_
bx ^
bx ]
bx \
bx [
bx Z
bx Y
bx X
bx W
bx V
bx U
xT
xS
xR
xQ
xP
bx O
b0 N
b0 M
0L
bx K
bx J
bx I
bx H
xG
bx F
bx E
bx D
bx C
bx B
bx A
bx @
bx ?
bx >
bx =
bx <
bx ;
x:
x9
x8
x7
bx 6
bx 5
bx 4
bx 3
bx 2
bx 1
bx 0
bx /
bx .
bx -
bx ,
bx +
bx *
bx )
z(
z'
0&
b0xxxxx %
b0xxxxx $
bx #
bx "
bx !
$end
#5
b100 "
b100 h
b100 K"
b100 i
b100 ?"
0L"
b10010010000000011 !
b10010010000000011 2
b10010010000000011 9"
b10010010000000011 ="
b0 #
b0 1
b0 :"
b0 G"
b0 M"
zS
1&
#10
0&
#15
b1000 "
b1000 h
b1000 K"
b0 K
b0 8"
b0 ;"
b1 @
b1 ""
b1 N"
b0 Y
b0 w
b0 }
b10 X
b10 ~
b10 '"
0R
1`
0b
b0 I
b0 !"
b0 6"
1T
b0 ^
b0 n
b0 |
1:
b1001001000 7"
b1000 0
b1000 W"
b1000 a"
b0 ;
b0 V"
b0 ]"
b0 $
b0 *
b0 4"
b0 Y"
b0 i"
b1111101000 <
b1111101000 U"
b1111101000 ["
b10 %
b10 ,
b10 3"
b10 X"
b10 g"
b0 z
b10 y
b11 {
b1000 i
b1000 ?"
b10010010000000011 H
b10010010000000011 >"
b0 B
b0 H"
b0 I"
b100 F
b100 @"
b100 A"
b11111111111001000000001010010011 !
b11111111111001000000001010010011 2
b11111111111001000000001010010011 9"
b11111111111001000000001010010011 ="
b100 #
b100 1
b100 :"
b100 G"
b100 M"
1&
#20
0&
#25
b1111101000 3
b1111101000 m
b1111101000 p
0G
b1100 "
b1100 h
b1100 K"
b0 d
b0 k
b1111101000 c
b1111101000 j
b11111111111111111111111111111110 K
b11111111111111111111111111111110 8"
b11111111111111111111111111111110 ;"
b0 @
b0 ""
b0 N"
b0 X
b0 ~
b0 '"
b1111111111100100000000101 7"
b101 0
b101 W"
b101 a"
b11110 $
b11110 *
b11110 4"
b11110 Y"
b11110 i"
b0 <
b0 U"
b0 ["
b1000 %
b1000 ,
b1000 3"
b1000 X"
b1000 g"
b1111111 z
b0 y
b10011 {
b0 g
b0 u
b1111101000 f
b1111101000 t
b1100 i
b1100 ?"
bx !
bx 2
bx 9"
bx ="
b1000 #
b1000 1
b1000 :"
b1000 G"
b1000 M"
b1000 F
b1000 @"
b1000 A"
b100 B
b100 H"
b100 I"
b11111111111001000000001010010011 H
b11111111111001000000001010010011 >"
0a
1_
b0 ]
b0 l
b0 o
b0 Z
b0 v
b0 x
b10 W
b10 ("
b10 )"
0Q
b1 ?
b1 O"
b1 P"
b1 R"
19
b0 J
b0 <"
b100 E
b100 B"
b100 C"
b0 A
b0 J"
b1111101000 6
b1111101000 \"
b0 5
b0 ^"
b0 _"
b1000 /
b1000 5"
b1000 b"
b1000 c"
b10 +
b10 ."
b10 h"
b0 )
b0 -"
b0 j"
1&
#30
0&
#35
b1111100110 3
b1111100110 m
b1111100110 p
b10000 "
b10000 h
b10000 K"
b11111111111111111111111111111110 d
b11111111111111111111111111111110 k
b1111101000 c
b1111101000 j
bx K
bx 8"
bx ;"
0`
0:
b10 N
b10 1"
bx 7"
bx 0
bx W"
bx a"
bx ;
bx V"
bx ]"
b0xxxxx $
bx *
bx 4"
bx Y"
bx i"
bx <
bx U"
bx ["
b0xxxxx %
bx ,
bx 3"
bx X"
bx g"
bx z
bx y
bx {
b1111101000 f
b1111101000 t
b10000 i
b10000 ?"
17
b1 =
b1 S"
b1000 .
b1000 0"
b1000 d"
b1000 e"
b0 4
b0 $"
b0 `"
b1111101000 \
b1111101000 q
b1111101000 r
b1111101000 #"
b100 D
b100 D"
b100 E"
18
b1 >
b1 Q"
0P
b10 V
b10 %"
b10 *"
b11110 )
b11110 -"
b11110 j"
b1000 +
b1000 ."
b1000 h"
b101 /
b101 5"
b101 b"
b101 c"
b0 6
b0 \"
b100 A
b100 J"
b1000 E
b1000 B"
b1000 C"
b11111111111111111111111111111110 J
b11111111111111111111111111111110 <"
b0 ?
b0 O"
b0 P"
b0 R"
b0 W
b0 ("
b0 )"
bx H
bx >"
b1000 B
b1000 H"
b1000 I"
b1100 F
b1100 @"
b1100 A"
b1100 #
b1100 1
b1100 :"
b1100 G"
b1100 M"
1&
#40
0&
#45
bx 3
bx m
bx p
b1111101000 e
b1111101000 T"
b10100 "
b10100 h
b10100 K"
bx d
bx k
bx c
bx j
b0 N
b0 1"
bx g
bx u
bx f
bx t
b10100 i
b10100 ?"
b10000 #
b10000 1
b10000 :"
b10000 G"
b10000 M"
b10000 F
b10000 @"
b10000 A"
b1100 B
b1100 H"
b1100 I"
0_
09
bx J
bx <"
b1100 E
b1100 B"
b1100 C"
b1000 A
b1000 J"
bx 6
bx \"
bx 5
bx ^"
bx _"
bx /
bx 5"
bx b"
bx c"
bx +
bx ."
bx h"
bx )
bx -"
bx j"
b0 V
b0 %"
b0 *"
b0 >
b0 Q"
b1000 D
b1000 D"
b1000 E"
b1111100110 \
b1111100110 q
b1111100110 r
b1111100110 #"
b101 .
b101 0"
b101 d"
b101 e"
b0 =
b0 S"
b1000 -
b1000 /"
b1000 f"
b100 C
b100 F"
b1111101000 [
b1111101000 s
1&
#50
0&
#55
b1111100110 e
b1111100110 T"
b11000 "
b11000 h
b11000 K"
b11000 i
b11000 ?"
b1111100110 [
b1111100110 s
b1000 C
b1000 F"
b101 -
b101 /"
b101 f"
07
bx .
bx 0"
bx d"
bx e"
bx 4
bx $"
bx `"
bx \
bx q
bx r
bx #"
b1100 D
b1100 D"
b1100 E"
08
b1100 A
b1100 J"
b10000 E
b10000 B"
b10000 C"
b10000 B
b10000 H"
b10000 I"
b10100 F
b10100 @"
b10100 A"
b10100 #
b10100 1
b10100 :"
b10100 G"
b10100 M"
1&
#60
0&
#65
bx e
bx T"
b11100 "
b11100 h
b11100 K"
b11100 i
b11100 ?"
b11000 #
b11000 1
b11000 :"
b11000 G"
b11000 M"
b11000 F
b11000 @"
b11000 A"
b10100 B
b10100 H"
b10100 I"
b10100 E
b10100 B"
b10100 C"
b10000 A
b10000 J"
b10000 D
b10000 D"
b10000 E"
bx -
bx /"
bx f"
b1100 C
b1100 F"
bx [
bx s
1&
#70
0&
#75
b100000 "
b100000 h
b100000 K"
b100000 i
b100000 ?"
b10000 C
b10000 F"
b10100 D
b10100 D"
b10100 E"
b10100 A
b10100 J"
b11000 E
b11000 B"
b11000 C"
b11000 B
b11000 H"
b11000 I"
b11100 F
b11100 @"
b11100 A"
b11100 #
b11100 1
b11100 :"
b11100 G"
b11100 M"
1&
#80
0&
#85
b100100 "
b100100 h
b100100 K"
b100100 i
b100100 ?"
b100000 #
b100000 1
b100000 :"
b100000 G"
b100000 M"
b100000 F
b100000 @"
b100000 A"
b11100 B
b11100 H"
b11100 I"
b11100 E
b11100 B"
b11100 C"
b11000 A
b11000 J"
b11000 D
b11000 D"
b11000 E"
b10100 C
b10100 F"
1&
#90
0&
#95
b101000 "
b101000 h
b101000 K"
b101000 i
b101000 ?"
b11000 C
b11000 F"
b11100 D
b11100 D"
b11100 E"
b11100 A
b11100 J"
b100000 E
b100000 B"
b100000 C"
b100000 B
b100000 H"
b100000 I"
b100100 F
b100100 @"
b100100 A"
b100100 #
b100100 1
b100100 :"
b100100 G"
b100100 M"
1&
#100
0&
#105
b101100 "
b101100 h
b101100 K"
b101100 i
b101100 ?"
b101000 #
b101000 1
b101000 :"
b101000 G"
b101000 M"
b101000 F
b101000 @"
b101000 A"
b100100 B
b100100 H"
b100100 I"
b100100 E
b100100 B"
b100100 C"
b100000 A
b100000 J"
b100000 D
b100000 D"
b100000 E"
b11100 C
b11100 F"
1&
#110
0&
#115
b110000 "
b110000 h
b110000 K"
b110000 i
b110000 ?"
b100000 C
b100000 F"
b100100 D
b100100 D"
b100100 E"
b100100 A
b100100 J"
b101000 E
b101000 B"
b101000 C"
b101000 B
b101000 H"
b101000 I"
b101100 F
b101100 @"
b101100 A"
b101100 #
b101100 1
b101100 :"
b101100 G"
b101100 M"
1&
#120
0&
#125
b110100 "
b110100 h
b110100 K"
b110100 i
b110100 ?"
b110000 #
b110000 1
b110000 :"
b110000 G"
b110000 M"
b110000 F
b110000 @"
b110000 A"
b101100 B
b101100 H"
b101100 I"
b101100 E
b101100 B"
b101100 C"
b101000 A
b101000 J"
b101000 D
b101000 D"
b101000 E"
b100100 C
b100100 F"
1&
#130
0&
#135
b111000 "
b111000 h
b111000 K"
b111000 i
b111000 ?"
b101000 C
b101000 F"
b101100 D
b101100 D"
b101100 E"
b101100 A
b101100 J"
b110000 E
b110000 B"
b110000 C"
b110000 B
b110000 H"
b110000 I"
b110100 F
b110100 @"
b110100 A"
b110100 #
b110100 1
b110100 :"
b110100 G"
b110100 M"
1&
#140
0&
#145
b111100 "
b111100 h
b111100 K"
b111100 i
b111100 ?"
b111000 #
b111000 1
b111000 :"
b111000 G"
b111000 M"
b111000 F
b111000 @"
b111000 A"
b110100 B
b110100 H"
b110100 I"
b110100 E
b110100 B"
b110100 C"
b110000 A
b110000 J"
b110000 D
b110000 D"
b110000 E"
b101100 C
b101100 F"
1&
#150
0&
#155
b1000000 "
b1000000 h
b1000000 K"
b1000000 i
b1000000 ?"
b110000 C
b110000 F"
b110100 D
b110100 D"
b110100 E"
b110100 A
b110100 J"
b111000 E
b111000 B"
b111000 C"
b111000 B
b111000 H"
b111000 I"
b111100 F
b111100 @"
b111100 A"
b111100 #
b111100 1
b111100 :"
b111100 G"
b111100 M"
1&
#160
0&
#165
b1000100 "
b1000100 h
b1000100 K"
b1000100 i
b1000100 ?"
b1000000 #
b1000000 1
b1000000 :"
b1000000 G"
b1000000 M"
b1000000 F
b1000000 @"
b1000000 A"
b111100 B
b111100 H"
b111100 I"
b111100 E
b111100 B"
b111100 C"
b111000 A
b111000 J"
b111000 D
b111000 D"
b111000 E"
b110100 C
b110100 F"
1&
#170
0&
#175
b1001000 "
b1001000 h
b1001000 K"
b1001000 i
b1001000 ?"
b111000 C
b111000 F"
b111100 D
b111100 D"
b111100 E"
b111100 A
b111100 J"
b1000000 E
b1000000 B"
b1000000 C"
b1000000 B
b1000000 H"
b1000000 I"
b1000100 F
b1000100 @"
b1000100 A"
b1000100 #
b1000100 1
b1000100 :"
b1000100 G"
b1000100 M"
1&
#180
0&
#185
b1001100 "
b1001100 h
b1001100 K"
b1001100 i
b1001100 ?"
b1001000 #
b1001000 1
b1001000 :"
b1001000 G"
b1001000 M"
b1001000 F
b1001000 @"
b1001000 A"
b1000100 B
b1000100 H"
b1000100 I"
b1000100 E
b1000100 B"
b1000100 C"
b1000000 A
b1000000 J"
b1000000 D
b1000000 D"
b1000000 E"
b111100 C
b111100 F"
1&
#190
0&
#195
b1010000 "
b1010000 h
b1010000 K"
b1010000 i
b1010000 ?"
b1000000 C
b1000000 F"
b1000100 D
b1000100 D"
b1000100 E"
b1000100 A
b1000100 J"
b1001000 E
b1001000 B"
b1001000 C"
b1001000 B
b1001000 H"
b1001000 I"
b1001100 F
b1001100 @"
b1001100 A"
b1001100 #
b1001100 1
b1001100 :"
b1001100 G"
b1001100 M"
1&
#200
0&
#205
b1010100 "
b1010100 h
b1010100 K"
b1010100 i
b1010100 ?"
b1010000 #
b1010000 1
b1010000 :"
b1010000 G"
b1010000 M"
b1010000 F
b1010000 @"
b1010000 A"
b1001100 B
b1001100 H"
b1001100 I"
b1001100 E
b1001100 B"
b1001100 C"
b1001000 A
b1001000 J"
b1001000 D
b1001000 D"
b1001000 E"
b1000100 C
b1000100 F"
1&
#210
0&
#215
b1011000 "
b1011000 h
b1011000 K"
b1011000 i
b1011000 ?"
b1001000 C
b1001000 F"
b1001100 D
b1001100 D"
b1001100 E"
b1001100 A
b1001100 J"
b1010000 E
b1010000 B"
b1010000 C"
b1010000 B
b1010000 H"
b1010000 I"
b1010100 F
b1010100 @"
b1010100 A"
b1010100 #
b1010100 1
b1010100 :"
b1010100 G"
b1010100 M"
1&
#220
0&
#225
b1011100 "
b1011100 h
b1011100 K"
b1011100 i
b1011100 ?"
b1011000 #
b1011000 1
b1011000 :"
b1011000 G"
b1011000 M"
b1011000 F
b1011000 @"
b1011000 A"
b1010100 B
b1010100 H"
b1010100 I"
b1010100 E
b1010100 B"
b1010100 C"
b1010000 A
b1010000 J"
b1010000 D
b1010000 D"
b1010000 E"
b1001100 C
b1001100 F"
1&
#230
0&
#235
b1100000 "
b1100000 h
b1100000 K"
b1100000 i
b1100000 ?"
b1010000 C
b1010000 F"
b1010100 D
b1010100 D"
b1010100 E"
b1010100 A
b1010100 J"
b1011000 E
b1011000 B"
b1011000 C"
b1011000 B
b1011000 H"
b1011000 I"
b1011100 F
b1011100 @"
b1011100 A"
b1011100 #
b1011100 1
b1011100 :"
b1011100 G"
b1011100 M"
1&
#240
0&
#245
b1100100 "
b1100100 h
b1100100 K"
b1100100 i
b1100100 ?"
b1100000 #
b1100000 1
b1100000 :"
b1100000 G"
b1100000 M"
b1100000 F
b1100000 @"
b1100000 A"
b1011100 B
b1011100 H"
b1011100 I"
b1011100 E
b1011100 B"
b1011100 C"
b1011000 A
b1011000 J"
b1011000 D
b1011000 D"
b1011000 E"
b1010100 C
b1010100 F"
1&
#250
0&
#255
b1101000 "
b1101000 h
b1101000 K"
b1101000 i
b1101000 ?"
b1011000 C
b1011000 F"
b1011100 D
b1011100 D"
b1011100 E"
b1011100 A
b1011100 J"
b1100000 E
b1100000 B"
b1100000 C"
b1100000 B
b1100000 H"
b1100000 I"
b1100100 F
b1100100 @"
b1100100 A"
b1100100 #
b1100100 1
b1100100 :"
b1100100 G"
b1100100 M"
1&
#260
0&
#265
b1101100 "
b1101100 h
b1101100 K"
b1101100 i
b1101100 ?"
b1101000 #
b1101000 1
b1101000 :"
b1101000 G"
b1101000 M"
b1101000 F
b1101000 @"
b1101000 A"
b1100100 B
b1100100 H"
b1100100 I"
b1100100 E
b1100100 B"
b1100100 C"
b1100000 A
b1100000 J"
b1100000 D
b1100000 D"
b1100000 E"
b1011100 C
b1011100 F"
1&
#270
0&
#275
b1110000 "
b1110000 h
b1110000 K"
b1110000 i
b1110000 ?"
b1100000 C
b1100000 F"
b1100100 D
b1100100 D"
b1100100 E"
b1100100 A
b1100100 J"
b1101000 E
b1101000 B"
b1101000 C"
b1101000 B
b1101000 H"
b1101000 I"
b1101100 F
b1101100 @"
b1101100 A"
b1101100 #
b1101100 1
b1101100 :"
b1101100 G"
b1101100 M"
1&
#280
0&
#285
b1110100 "
b1110100 h
b1110100 K"
b1110100 i
b1110100 ?"
b1110000 #
b1110000 1
b1110000 :"
b1110000 G"
b1110000 M"
b1110000 F
b1110000 @"
b1110000 A"
b1101100 B
b1101100 H"
b1101100 I"
b1101100 E
b1101100 B"
b1101100 C"
b1101000 A
b1101000 J"
b1101000 D
b1101000 D"
b1101000 E"
b1100100 C
b1100100 F"
1&
#290
0&
#295
b1111000 "
b1111000 h
b1111000 K"
b1111000 i
b1111000 ?"
b1101000 C
b1101000 F"
b1101100 D
b1101100 D"
b1101100 E"
b1101100 A
b1101100 J"
b1110000 E
b1110000 B"
b1110000 C"
b1110000 B
b1110000 H"
b1110000 I"
b1110100 F
b1110100 @"
b1110100 A"
b1110100 #
b1110100 1
b1110100 :"
b1110100 G"
b1110100 M"
1&
#300
0&
#305
b1111100 "
b1111100 h
b1111100 K"
b1111100 i
b1111100 ?"
b1111000 #
b1111000 1
b1111000 :"
b1111000 G"
b1111000 M"
b1111000 F
b1111000 @"
b1111000 A"
b1110100 B
b1110100 H"
b1110100 I"
b1110100 E
b1110100 B"
b1110100 C"
b1110000 A
b1110000 J"
b1110000 D
b1110000 D"
b1110000 E"
b1101100 C
b1101100 F"
1&
#310
0&
#315
b10000000 "
b10000000 h
b10000000 K"
b10000000 i
b10000000 ?"
b1110000 C
b1110000 F"
b1110100 D
b1110100 D"
b1110100 E"
b1110100 A
b1110100 J"
b1111000 E
b1111000 B"
b1111000 C"
b1111000 B
b1111000 H"
b1111000 I"
b1111100 F
b1111100 @"
b1111100 A"
b1111100 #
b1111100 1
b1111100 :"
b1111100 G"
b1111100 M"
1&
#320
0&
